<?xml version="1.0" encoding="UTF-8" standalone="no"?>
<svg
   xmlns:dc="http://purl.org/dc/elements/1.1/"
   xmlns:cc="http://creativecommons.org/ns#"
   xmlns:rdf="http://www.w3.org/1999/02/22-rdf-syntax-ns#"
   xmlns:svg="http://www.w3.org/2000/svg"
   xmlns="http://www.w3.org/2000/svg"
   xmlns:sodipodi="http://sodipodi.sourceforge.net/DTD/sodipodi-0.dtd"
   xmlns:inkscape="http://www.inkscape.org/namespaces/inkscape"
   id="svg4936"
   version="1.1"
   viewBox="0 0 297.13343 117.475"
   height="444"
   width="1123.024"
   sodipodi:docname="website-hero-regcfp.svg"
   inkscape:version="0.92.1 r">
  <sodipodi:namedview
     pagecolor="#d2d2d2"
     bordercolor="#666666"
     borderopacity="1"
     objecttolerance="10"
     gridtolerance="10"
     guidetolerance="10"
     inkscape:pageopacity="0"
     inkscape:pageshadow="2"
     inkscape:window-width="1920"
     inkscape:window-height="1136"
     id="namedview130"
     showgrid="false"
     inkscape:zoom="1"
     inkscape:cx="784.85878"
     inkscape:cy="255.84365"
     inkscape:window-x="0"
     inkscape:window-y="27"
     inkscape:window-maximized="1"
     inkscape:current-layer="svg4936">
    <inkscape:grid
       type="xygrid"
       id="grid127" />
  </sodipodi:namedview>
  <defs
     id="defs4930" />
  <metadata
     id="metadata4933">
    <rdf:RDF>
      <cc:Work
         rdf:about="">
        <dc:format>image/svg+xml</dc:format>
        <dc:type
           rdf:resource="http://purl.org/dc/dcmitype/StillImage" />
        <dc:title></dc:title>
      </cc:Work>
    </rdf:RDF>
  </metadata>
  <g
     id="g540"
     transform="matrix(0.8726652,0,0,0.8726652,18.917714,-8.1306065)"
     style="stroke-width:1.14591479">
    <g
       transform="matrix(0.26458333,0,0,0.26458333,-0.10514124,3.71171)"
       id="g8590"
       style="stroke-width:1.14591479">
      <path
         id="path4687"
         d="m 289.15552,368.93333 -0.15689,32.0358 V 527.9715 H 267.4746 v -54.68945 l -7.87247,-6.20688 v -77.69345 h 21.99047 l 0.13189,-27.52136 z"
         style="color:#000000;clip-rule:nonzero;display:inline;overflow:visible;visibility:visible;opacity:1;isolation:auto;mix-blend-mode:normal;color-interpolation:sRGB;color-interpolation-filters:linearRGB;solid-color:#000000;solid-opacity:1;fill:#ffffff;fill-opacity:1;fill-rule:nonzero;stroke:none;stroke-width:0.68593681;stroke-linecap:butt;stroke-linejoin:miter;stroke-miterlimit:4;stroke-dasharray:none;stroke-dashoffset:0;stroke-opacity:1;marker:none;marker-start:none;marker-mid:none;marker-end:none;paint-order:normal;color-rendering:auto;image-rendering:auto;shape-rendering:auto;text-rendering:auto;enable-background:accumulate"
         inkscape:connector-curvature="0" />
      <path
         id="path4689"
         d="m 340.47343,497.5975 c -31.50499,0.0245 -55.07605,11.374 -62.84038,31.56119 h 125.69948 c -7.93515,-20.18719 -31.3461,-31.54307 -62.8591,-31.56119 z m 0,11.43672 c 1.3911,0 2.5108,1.1197 2.5108,2.51081 0,1.3911 -1.1197,2.51081 -2.5108,2.51081 -1.39111,0 -2.51237,-1.11971 -2.51236,-2.51081 0,-1.39111 1.12125,-2.51081 2.51236,-2.51081 z"
         clip-path="none"
         style="color:#000000;clip-rule:nonzero;display:inline;overflow:visible;visibility:visible;opacity:1;isolation:auto;mix-blend-mode:normal;color-interpolation:sRGB;color-interpolation-filters:linearRGB;solid-color:#000000;solid-opacity:1;vector-effect:none;fill:#ffffff;fill-opacity:1;fill-rule:nonzero;stroke:none;stroke-width:1.07850814;stroke-linecap:square;stroke-linejoin:miter;stroke-miterlimit:4;stroke-dasharray:none;stroke-dashoffset:0;stroke-opacity:1;marker:none;marker-start:none;marker-mid:none;marker-end:none;paint-order:normal;color-rendering:auto;image-rendering:auto;shape-rendering:auto;text-rendering:auto;enable-background:accumulate"
         inkscape:connector-curvature="0" />
      <path
         id="path4691"
         d="m 493.44008,433.52346 -5.66794,31.10307 -0.96769,0.13824 0.13824,-1.79715 h -1.38243 l -0.6912,5.11497 v 7.32538 l -0.9677,-3.04134 -1.97069,7.3548 v 38.26226 h 11.49765 0.56473 11.49618 v -38.26226 l -1.97069,-7.3548 -0.96769,3.04134 v -7.32538 l -0.69122,-5.11497 h -1.38095 l 0.13824,1.79715 -0.9677,-0.13824 -5.66793,-31.10307 z"
         style="color:#000000;clip-rule:nonzero;display:inline;overflow:visible;visibility:visible;opacity:1;isolation:auto;mix-blend-mode:normal;color-interpolation:sRGB;color-interpolation-filters:linearRGB;solid-color:#000000;solid-opacity:1;vector-effect:none;fill:#ffffff;fill-opacity:1;fill-rule:nonzero;stroke:none;stroke-width:1.07850814;stroke-linecap:square;stroke-linejoin:miter;stroke-miterlimit:4;stroke-dasharray:none;stroke-dashoffset:0;stroke-opacity:1;marker:none;marker-start:none;marker-mid:none;marker-end:none;paint-order:normal;color-rendering:auto;image-rendering:auto;shape-rendering:auto;text-rendering:auto;enable-background:accumulate"
         inkscape:connector-curvature="0" />
      <path
         id="path4693"
         d="m 815.07216,481.55389 -8.51378,4.48389 h -1.44755 l -74.73505,43.1476 90.63114,-1.19829 v -38.88237 c 0,-1.7379 -0.91928,-3.06694 -3.10203,-3.06694 h -10.25725 l 7.58142,-3.98654 h 3.58152 l 0.7054,-0.44505 z"
         style="color:#000000;clip-rule:nonzero;display:inline;overflow:visible;visibility:visible;opacity:1;isolation:auto;mix-blend-mode:normal;color-interpolation:sRGB;color-interpolation-filters:linearRGB;solid-color:#000000;solid-opacity:1;vector-effect:none;fill:#ffffff;fill-opacity:1;fill-rule:nonzero;stroke:none;stroke-width:1.07850814;stroke-linecap:square;stroke-linejoin:miter;stroke-miterlimit:4;stroke-dasharray:none;stroke-dashoffset:0;stroke-opacity:1;marker:none;marker-start:none;marker-mid:none;marker-end:none;paint-order:normal;color-rendering:auto;image-rendering:auto;shape-rendering:auto;text-rendering:auto;enable-background:accumulate"
         inkscape:connector-curvature="0" />
      <path
         id="path4695"
         d="m 692.68933,488.28353 -0.13312,15.36021 v 25.82212 h 56.62776 v -14.02414 h -13.85145 l -5.68619,-11.79798 h -30.68465 l -0.26957,-15.2774 -1.90461,-0.0828 -0.15328,14.23102 -1.77071,1.12919 -0.26957,-15.2774 z"
         style="color:#000000;clip-rule:nonzero;display:inline;overflow:visible;visibility:visible;opacity:1;isolation:auto;mix-blend-mode:normal;color-interpolation:sRGB;color-interpolation-filters:linearRGB;solid-color:#000000;solid-opacity:1;vector-effect:none;fill:#ffffff;fill-opacity:1;fill-rule:nonzero;stroke:none;stroke-width:1.07850814;stroke-linecap:square;stroke-linejoin:miter;stroke-miterlimit:4;stroke-dasharray:none;stroke-dashoffset:0;stroke-opacity:1;marker:none;marker-start:none;marker-mid:none;marker-end:none;paint-order:normal;color-rendering:auto;image-rendering:auto;shape-rendering:auto;text-rendering:auto;enable-background:accumulate"
         inkscape:connector-curvature="0" />
      <path
         id="path4697"
         transform="translate(0.39738422,-256.0285)"
         d="m 581.94336,714.32812 -0.23828,1.8379 c -3.77224,0.1777 -6.8772,2.8116 -7.45703,6.28906 -0.0434,0.26027 -0.78903,0.51944 -0.80469,0.8125 h 3.00781 c 0.0614,-1.07252 0.94917,-1.91 2.02344,-1.91016 1.07374,7.2e-4 1.96015,0.83818 2.02148,1.91016 h 0.60547 1.98047 0.63281 c 0.0614,-1.07252 0.94917,-1.91 2.02344,-1.91016 1.07374,7.2e-4 1.96016,0.83818 2.02149,1.91016 H 590.75 c -0.0164,-0.30713 -0.76364,-0.5402 -0.81055,-0.8125 -0.60956,-3.53912 -3.83474,-6.2355 -7.71093,-6.30078 l -0.23829,-1.82618 z m -3.46875,7.40235 c -0.91381,-2.1e-4 -1.65451,0.74049 -1.6543,1.6543 3.8e-4,0.01 -3.1e-4,0.0196 0,0.0293 h -0.0156 v 0.19727 h -2.61328 c 0.74272,1.01016 1.14927,2.22939 1.15039,3.48828 -0.003,1.4915 -0.57024,2.9272 -1.58789,4.01758 l -0.42188,-0.89453 -1.12109,-0.0117 0.0547,3.48828 h -2.03906 v 48.76367 h 23.8086 v -48.76367 h -2.03907 l 0.0547,-3.48828 -1.12305,0.0117 -0.42187,0.89453 c -1.01765,-1.09038 -1.58324,-2.52608 -1.58594,-4.01758 6.7e-4,-1.25889 0.40762,-2.47812 1.15039,-3.48828 h -2.6914 v -0.34375 h 0.01 c -0.0609,-0.86646 -0.7818,-1.53725 -1.65039,-1.53711 -0.91381,-2.1e-4 -1.65451,0.74049 -1.6543,1.6543 3.8e-4,0.01 -3.2e-4,0.0196 0,0.0293 h -0.0156 v 0.19727 h -0.98828 -1.97852 -0.98828 v -0.34375 h 0.0117 c -0.0609,-0.86646 -0.7818,-1.53725 -1.65039,-1.53711 z m -1.68359,31.36523 a 2.1570716,3.2126598 0 0 1 2.15625,3.21289 2.1570716,3.2126598 0 0 1 -2.15625,3.21289 2.1570716,3.2126598 0 0 1 -2.15821,-3.21289 2.1570716,3.2126598 0 0 1 2.15821,-3.21289 z m 10.71093,0 a 2.1570716,3.2126598 0 0 1 2.15625,3.21289 2.1570716,3.2126598 0 0 1 -2.15625,3.21289 2.1570716,3.2126598 0 0 1 -2.1582,-3.21289 2.1570716,3.2126598 0 0 1 2.1582,-3.21289 z"
         style="color:#000000;clip-rule:nonzero;display:inline;overflow:visible;visibility:visible;opacity:1;isolation:auto;mix-blend-mode:normal;color-interpolation:sRGB;color-interpolation-filters:linearRGB;solid-color:#000000;solid-opacity:1;vector-effect:none;fill:#ffffff;fill-opacity:1;fill-rule:nonzero;stroke:none;stroke-width:1.07850814;stroke-linecap:square;stroke-linejoin:miter;stroke-miterlimit:4;stroke-dasharray:none;stroke-dashoffset:0;stroke-opacity:1;marker:none;marker-start:none;marker-mid:none;marker-end:none;paint-order:normal;color-rendering:auto;image-rendering:auto;shape-rendering:auto;text-rendering:auto;enable-background:accumulate"
         inkscape:connector-curvature="0" />
      <path
         id="path4699"
         d="m 235.02514,499.32077 -7.94144,13.75554 v 14.1781 h 10.15271 v -12.18113 h 0.0267 c 0.11332,-1.96261 1.7367,-3.49679 3.70258,-3.49913 2.05094,-1.5e-4 3.7136,1.6625 3.71345,3.71344 -9.8e-4,0.14562 -0.0105,0.29105 -0.0286,0.43554 v 11.53128 h 2.69916 v -12.18113 h 0.0267 c 0.11332,-1.96261 1.7367,-3.49679 3.70258,-3.49913 2.05093,-1.4e-4 3.71358,1.66251 3.71343,3.71344 -9.8e-4,0.14562 -0.0105,0.29105 -0.0286,0.43554 v 11.53128 h 2.69915 v -12.18113 h 0.0267 c 0.11332,-1.96261 1.7367,-3.49679 3.70258,-3.49913 2.05094,-1.5e-4 3.7136,1.6625 3.71345,3.71344 -9.8e-4,0.14562 -0.0105,0.29105 -0.0286,0.43554 v 11.53128 h 10.25048 v -27.93364 z"
         style="color:#000000;clip-rule:nonzero;display:inline;overflow:visible;visibility:visible;opacity:1;isolation:auto;mix-blend-mode:normal;color-interpolation:sRGB;color-interpolation-filters:linearRGB;solid-color:#000000;solid-opacity:1;vector-effect:none;fill:#ffffff;fill-opacity:1;fill-rule:nonzero;stroke:none;stroke-width:1.07850814;stroke-linecap:square;stroke-linejoin:miter;stroke-miterlimit:4;stroke-dasharray:none;stroke-dashoffset:0;stroke-opacity:1;marker:none;marker-start:none;marker-mid:none;marker-end:none;paint-order:normal;color-rendering:auto;image-rendering:auto;shape-rendering:auto;text-rendering:auto;enable-background:accumulate"
         inkscape:connector-curvature="0" />
      <path
         id="path4701"
         d="m 402.30115,519.08966 h 23.22307 l 5.52929,8.37618 h -28.75236 z"
         style="color:#000000;clip-rule:nonzero;display:inline;overflow:visible;visibility:visible;opacity:1;isolation:auto;mix-blend-mode:normal;color-interpolation:sRGB;color-interpolation-filters:linearRGB;solid-color:#000000;solid-opacity:1;vector-effect:none;fill:#ffffff;fill-opacity:1;fill-rule:nonzero;stroke:none;stroke-width:1.07850814;stroke-linecap:square;stroke-linejoin:miter;stroke-miterlimit:4;stroke-dasharray:none;stroke-dashoffset:0;stroke-opacity:1;marker:none;marker-start:none;marker-mid:none;marker-end:none;paint-order:normal;color-rendering:auto;image-rendering:auto;shape-rendering:auto;text-rendering:auto;enable-background:accumulate"
         inkscape:connector-curvature="0" />
      <path
         id="path4703"
         d="m 430.50058,516.32499 5.57026,-8.40608 4.69177,8.40608 h 85.15251 v 12.37618 h -95.41454 z"
         style="color:#000000;clip-rule:nonzero;display:inline;overflow:visible;visibility:visible;opacity:1;isolation:auto;mix-blend-mode:normal;color-interpolation:sRGB;color-interpolation-filters:linearRGB;solid-color:#000000;solid-opacity:1;vector-effect:none;fill:#ffffff;fill-opacity:1;fill-rule:nonzero;stroke:none;stroke-width:1.07850814;stroke-linecap:square;stroke-linejoin:miter;stroke-miterlimit:4;stroke-dasharray:none;stroke-dashoffset:0;stroke-opacity:1;marker:none;marker-start:none;marker-mid:none;marker-end:none;paint-order:normal;color-rendering:auto;image-rendering:auto;shape-rendering:auto;text-rendering:auto;enable-background:accumulate"
         inkscape:connector-curvature="0" />
      <rect
         y="512.15771"
         x="447.99579"
         height="9.3835316"
         width="3.1278436"
         id="rect4705"
         style="color:#000000;clip-rule:nonzero;display:inline;overflow:visible;visibility:visible;opacity:1;isolation:auto;mix-blend-mode:normal;color-interpolation:sRGB;color-interpolation-filters:linearRGB;solid-color:#000000;solid-opacity:1;vector-effect:none;fill:#ffffff;fill-opacity:1;fill-rule:nonzero;stroke:none;stroke-width:1.07850814;stroke-linecap:square;stroke-linejoin:miter;stroke-miterlimit:4;stroke-dasharray:none;stroke-dashoffset:0;stroke-opacity:1;marker:none;marker-start:none;marker-mid:none;marker-end:none;paint-order:normal;color-rendering:auto;image-rendering:auto;shape-rendering:auto;text-rendering:auto;enable-background:accumulate" />
      <rect
         y="513.72162"
         x="452.29657"
         height="7.0376492"
         width="2.9323537"
         id="rect4707"
         style="color:#000000;clip-rule:nonzero;display:inline;overflow:visible;visibility:visible;opacity:1;isolation:auto;mix-blend-mode:normal;color-interpolation:sRGB;color-interpolation-filters:linearRGB;solid-color:#000000;solid-opacity:1;vector-effect:none;fill:#ffffff;fill-opacity:1;fill-rule:nonzero;stroke:none;stroke-width:1.07850814;stroke-linecap:square;stroke-linejoin:miter;stroke-miterlimit:4;stroke-dasharray:none;stroke-dashoffset:0;stroke-opacity:1;marker:none;marker-start:none;marker-mid:none;marker-end:none;paint-order:normal;color-rendering:auto;image-rendering:auto;shape-rendering:auto;text-rendering:auto;enable-background:accumulate" />
      <path
         id="path4709"
         d="m 543.49417,502.85005 a 23.131149,10.372301 0 0 0 -23.13086,10.3711 23.131149,10.372301 0 0 0 0.41797,1.92773 h 1.7832 v 13.95311 h 41.85743 v -13.95311 h 1.78711 a 23.131149,10.372301 0 0 0 0.41601,-1.92773 23.131149,10.372301 0 0 0 -23.13086,-10.3711 z m -8.32617,12.48242 h 3.52734 v 10.46482 H 535.168 Z m 6.71094,0 h 3.52539 v 10.46482 h -3.52539 z m 6.59765,0 h 3.52539 v 10.46482 h -3.52539 z"
         style="color:#000000;clip-rule:nonzero;display:inline;overflow:visible;visibility:visible;opacity:1;isolation:auto;mix-blend-mode:normal;color-interpolation:sRGB;color-interpolation-filters:linearRGB;solid-color:#000000;solid-opacity:1;vector-effect:none;fill:#ffffff;fill-opacity:1;fill-rule:nonzero;stroke:none;stroke-width:1.07850814;stroke-linecap:square;stroke-linejoin:miter;stroke-miterlimit:4;stroke-dasharray:none;stroke-dashoffset:0;stroke-opacity:1;marker:none;marker-start:none;marker-mid:none;marker-end:none;paint-order:normal;color-rendering:auto;image-rendering:auto;shape-rendering:auto;text-rendering:auto;enable-background:accumulate"
         inkscape:connector-curvature="0" />
      <rect
         y="521.19269"
         x="560.62897"
         height="7.0097971"
         width="35.82785"
         id="rect4711"
         style="color:#000000;clip-rule:nonzero;display:inline;overflow:visible;visibility:visible;opacity:1;isolation:auto;mix-blend-mode:normal;color-interpolation:sRGB;color-interpolation-filters:linearRGB;solid-color:#000000;solid-opacity:1;vector-effect:none;fill:#ffffff;fill-opacity:1;fill-rule:nonzero;stroke:none;stroke-width:1.07850814;stroke-linecap:square;stroke-linejoin:miter;stroke-miterlimit:4;stroke-dasharray:none;stroke-dashoffset:0;stroke-opacity:1;marker:none;marker-start:none;marker-mid:none;marker-end:none;paint-order:normal;color-rendering:auto;image-rendering:auto;shape-rendering:auto;text-rendering:auto;enable-background:accumulate" />
      <path
         id="path4713"
         d="m 639.31058,503.04537 -21.2832,6.52148 v 2.27734 h -5.04883 v 17.0938 h 53.14648 v -17.0938 h -7.0625 v -2.27734 z m -13.66406,12.4707 h 3.66992 v 9.91402 h -3.66992 z m 6,0 h 3.66992 v 9.91402 h -3.66992 z m 6,0 h 3.66992 v 9.91402 h -3.66992 z m 6,0 h 3.66992 v 9.91402 h -3.66992 z m 6,0 h 3.66992 v 9.91402 h -3.66992 z"
         style="color:#000000;clip-rule:nonzero;display:inline;overflow:visible;visibility:visible;opacity:1;isolation:auto;mix-blend-mode:normal;color-interpolation:sRGB;color-interpolation-filters:linearRGB;solid-color:#000000;solid-opacity:1;vector-effect:none;fill:#ffffff;fill-opacity:1;fill-rule:nonzero;stroke:none;stroke-width:1.07850814;stroke-linecap:square;stroke-linejoin:miter;stroke-miterlimit:4;stroke-dasharray:none;stroke-dashoffset:0;stroke-opacity:1;marker:none;marker-start:none;marker-mid:none;marker-end:none;paint-order:normal;color-rendering:auto;image-rendering:auto;shape-rendering:auto;text-rendering:auto;enable-background:accumulate"
         inkscape:connector-curvature="0" />
      <rect
         y="516.43445"
         x="602.90875"
         height="12.116317"
         width="11.014833"
         id="rect4715"
         style="color:#000000;clip-rule:nonzero;display:inline;overflow:visible;visibility:visible;opacity:1;isolation:auto;mix-blend-mode:normal;color-interpolation:sRGB;color-interpolation-filters:linearRGB;solid-color:#000000;solid-opacity:1;vector-effect:none;fill:#ffffff;fill-opacity:1;fill-rule:nonzero;stroke:none;stroke-width:1.07850814;stroke-linecap:square;stroke-linejoin:miter;stroke-miterlimit:4;stroke-dasharray:none;stroke-dashoffset:0;stroke-opacity:1;marker:none;marker-start:none;marker-mid:none;marker-end:none;paint-order:normal;color-rendering:auto;image-rendering:auto;shape-rendering:auto;text-rendering:auto;enable-background:accumulate" />
      <rect
         y="516.43445"
         x="661.65454"
         height="10.280511"
         width="48.098106"
         id="rect4717"
         style="color:#000000;clip-rule:nonzero;display:inline;overflow:visible;visibility:visible;opacity:1;isolation:auto;mix-blend-mode:normal;color-interpolation:sRGB;color-interpolation-filters:linearRGB;solid-color:#000000;solid-opacity:1;vector-effect:none;fill:#ffffff;fill-opacity:1;fill-rule:nonzero;stroke:none;stroke-width:1.07850814;stroke-linecap:square;stroke-linejoin:miter;stroke-miterlimit:4;stroke-dasharray:none;stroke-dashoffset:0;stroke-opacity:1;marker:none;marker-start:none;marker-mid:none;marker-end:none;paint-order:normal;color-rendering:auto;image-rendering:auto;shape-rendering:auto;text-rendering:auto;enable-background:accumulate" />
      <rect
         y="506.15393"
         x="674.50519"
         height="14.686444"
         width="12.850639"
         id="rect4719"
         style="color:#000000;clip-rule:nonzero;display:inline;overflow:visible;visibility:visible;opacity:1;isolation:auto;mix-blend-mode:normal;color-interpolation:sRGB;color-interpolation-filters:linearRGB;solid-color:#000000;solid-opacity:1;vector-effect:none;fill:#ffffff;fill-opacity:1;fill-rule:nonzero;stroke:none;stroke-width:1.07850814;stroke-linecap:square;stroke-linejoin:miter;stroke-miterlimit:4;stroke-dasharray:none;stroke-dashoffset:0;stroke-opacity:1;marker:none;marker-start:none;marker-mid:none;marker-end:none;paint-order:normal;color-rendering:auto;image-rendering:auto;shape-rendering:auto;text-rendering:auto;enable-background:accumulate" />
      <rect
         y="513.13"
         x="811.82343"
         height="15.841494"
         width="72.697899"
         id="rect4721"
         style="color:#000000;clip-rule:nonzero;display:inline;overflow:visible;visibility:visible;opacity:1;isolation:auto;mix-blend-mode:normal;color-interpolation:sRGB;color-interpolation-filters:linearRGB;solid-color:#000000;solid-opacity:1;vector-effect:none;fill:#ffffff;fill-opacity:1;fill-rule:nonzero;stroke:none;stroke-width:1.07850814;stroke-linecap:square;stroke-linejoin:miter;stroke-miterlimit:4;stroke-dasharray:none;stroke-dashoffset:0;stroke-opacity:1;marker:none;marker-start:none;marker-mid:none;marker-end:none;paint-order:normal;color-rendering:auto;image-rendering:auto;shape-rendering:auto;text-rendering:auto;enable-background:accumulate" />
      <rect
         transform="rotate(45)"
         y="-290.60037"
         x="1007.5526"
         height="10.280511"
         width="10.280511"
         id="rect4723"
         style="color:#000000;clip-rule:nonzero;display:inline;overflow:visible;visibility:visible;opacity:1;isolation:auto;mix-blend-mode:normal;color-interpolation:sRGB;color-interpolation-filters:linearRGB;solid-color:#000000;solid-opacity:1;vector-effect:none;fill:#ffffff;fill-opacity:1;fill-rule:nonzero;stroke:none;stroke-width:1.07850814;stroke-linecap:square;stroke-linejoin:miter;stroke-miterlimit:4;stroke-dasharray:none;stroke-dashoffset:0;stroke-opacity:1;marker:none;marker-start:none;marker-mid:none;marker-end:none;paint-order:normal;color-rendering:auto;image-rendering:auto;shape-rendering:auto;text-rendering:auto;enable-background:accumulate" />
      <rect
         style="color:#000000;clip-rule:nonzero;display:inline;overflow:visible;visibility:visible;opacity:1;isolation:auto;mix-blend-mode:normal;color-interpolation:sRGB;color-interpolation-filters:linearRGB;solid-color:#000000;solid-opacity:1;vector-effect:none;fill:#ffffff;fill-opacity:1;fill-rule:nonzero;stroke:none;stroke-width:1.07850814;stroke-linecap:square;stroke-linejoin:miter;stroke-miterlimit:4;stroke-dasharray:none;stroke-dashoffset:0;stroke-opacity:1;marker:none;marker-start:none;marker-mid:none;marker-end:none;paint-order:normal;color-rendering:auto;image-rendering:auto;shape-rendering:auto;text-rendering:auto;enable-background:accumulate"
         id="rect4725"
         width="10.280511"
         height="10.280511"
         x="967.83051"
         y="-250.87819"
         transform="rotate(45)" />
      <rect
         transform="rotate(45)"
         y="-260.22461"
         x="977.17682"
         height="10.280511"
         width="10.280511"
         id="rect4727"
         style="color:#000000;clip-rule:nonzero;display:inline;overflow:visible;visibility:visible;opacity:1;isolation:auto;mix-blend-mode:normal;color-interpolation:sRGB;color-interpolation-filters:linearRGB;solid-color:#000000;solid-opacity:1;vector-effect:none;fill:#ffffff;fill-opacity:1;fill-rule:nonzero;stroke:none;stroke-width:1.07850814;stroke-linecap:square;stroke-linejoin:miter;stroke-miterlimit:4;stroke-dasharray:none;stroke-dashoffset:0;stroke-opacity:1;marker:none;marker-start:none;marker-mid:none;marker-end:none;paint-order:normal;color-rendering:auto;image-rendering:auto;shape-rendering:auto;text-rendering:auto;enable-background:accumulate" />
      <path
         id="path4729"
         d="m 904.34808,513.13001 h 126.30342 l 7.2677,7.75243 v 6.97279 H 904.34808 Z"
         style="color:#000000;clip-rule:nonzero;display:inline;overflow:visible;visibility:visible;opacity:1;isolation:auto;mix-blend-mode:normal;color-interpolation:sRGB;color-interpolation-filters:linearRGB;solid-color:#000000;solid-opacity:1;vector-effect:none;fill:#ffffff;fill-opacity:1;fill-rule:nonzero;stroke:none;stroke-width:1.07850814;stroke-linecap:square;stroke-linejoin:miter;stroke-miterlimit:4;stroke-dasharray:none;stroke-dashoffset:0;stroke-opacity:1;marker:none;marker-start:none;marker-mid:none;marker-end:none;paint-order:normal;color-rendering:auto;image-rendering:auto;shape-rendering:auto;text-rendering:auto;enable-background:accumulate"
         inkscape:connector-curvature="0" />
      <rect
         style="color:#000000;clip-rule:nonzero;display:inline;overflow:visible;visibility:visible;opacity:1;isolation:auto;mix-blend-mode:normal;color-interpolation:sRGB;color-interpolation-filters:linearRGB;solid-color:#000000;solid-opacity:1;vector-effect:none;fill:#ffffff;fill-opacity:1;fill-rule:nonzero;stroke:none;stroke-width:1.07850814;stroke-linecap:square;stroke-linejoin:miter;stroke-miterlimit:4;stroke-dasharray:none;stroke-dashoffset:0;stroke-opacity:1;marker:none;marker-start:none;marker-mid:none;marker-end:none;paint-order:normal;color-rendering:auto;image-rendering:auto;shape-rendering:auto;text-rendering:auto;enable-background:accumulate"
         id="rect4731"
         width="10.280511"
         height="10.280511"
         x="948.35883"
         y="-231.40648"
         transform="rotate(45)" />
      <path
         id="path4733"
         d="m 942.33674,506.96138 -7.2695,7.26953 7.2695,7.26958 5.1758,-5.1758 h 6.7832 l 5.1758,5.1758 7.2695,-7.26958 -7.2695,-7.26953 -0.0625,0.0625 v -0.0449 h -17.0547 z"
         style="color:#000000;clip-rule:nonzero;display:inline;overflow:visible;visibility:visible;opacity:1;isolation:auto;mix-blend-mode:normal;color-interpolation:sRGB;color-interpolation-filters:linearRGB;solid-color:#000000;solid-opacity:1;vector-effect:none;fill:#ffffff;fill-opacity:1;fill-rule:nonzero;stroke:none;stroke-width:1.07850814;stroke-linecap:square;stroke-linejoin:miter;stroke-miterlimit:4;stroke-dasharray:none;stroke-dashoffset:0;stroke-opacity:1;marker:none;marker-start:none;marker-mid:none;marker-end:none;paint-order:normal;color-rendering:auto;image-rendering:auto;shape-rendering:auto;text-rendering:auto;enable-background:accumulate"
         inkscape:connector-curvature="0" />
      <path
         id="ellipse4735"
         d="m 911.69127,528.18359 h -9.54619 -9.54619 c 0,-4.66388 4.27398,-8.4447 9.54619,-8.4447 5.27221,0 9.54619,3.78082 9.54619,8.4447 z"
         style="color:#000000;clip-rule:nonzero;display:inline;overflow:visible;visibility:visible;opacity:1;isolation:auto;mix-blend-mode:normal;color-interpolation:sRGB;color-interpolation-filters:linearRGB;solid-color:#000000;solid-opacity:1;vector-effect:none;fill:#ffffff;fill-opacity:1;fill-rule:nonzero;stroke:none;stroke-width:1.07850814;stroke-linecap:square;stroke-linejoin:miter;stroke-miterlimit:4;stroke-dasharray:none;stroke-dashoffset:0;stroke-opacity:1;marker:none;marker-start:none;marker-mid:none;marker-end:none;paint-order:normal;color-rendering:auto;image-rendering:auto;shape-rendering:auto;text-rendering:auto;enable-background:accumulate"
         inkscape:connector-curvature="0" />
      <path
         style="color:#000000;clip-rule:nonzero;display:inline;overflow:visible;visibility:visible;opacity:1;isolation:auto;mix-blend-mode:normal;color-interpolation:sRGB;color-interpolation-filters:linearRGB;solid-color:#000000;solid-opacity:1;vector-effect:none;fill:#ffffff;fill-opacity:1;fill-rule:nonzero;stroke:none;stroke-width:1.07850814;stroke-linecap:square;stroke-linejoin:miter;stroke-miterlimit:4;stroke-dasharray:none;stroke-dashoffset:0;stroke-opacity:1;marker:none;marker-start:none;marker-mid:none;marker-end:none;paint-order:normal;color-rendering:auto;image-rendering:auto;shape-rendering:auto;text-rendering:auto;enable-background:accumulate"
         d="m 120.85548,516.82702 -5.45211,5.45218 v 3.51129 h 9.33398 5.08743 9.33399 v -3.51129 l -5.45211,-5.45218 -0.0469,0.0469 v -0.0337 h -12.7911 z"
         id="path4741"
         inkscape:connector-curvature="0" />
      <path
         id="path4743"
         d="m 140.68218,516.82702 -5.45211,5.45218 v 3.51129 h 9.33398 5.08743 9.33399 v -3.51129 l -5.45211,-5.45218 -0.0469,0.0469 v -0.0337 h -12.7911 z"
         style="color:#000000;clip-rule:nonzero;display:inline;overflow:visible;visibility:visible;opacity:1;isolation:auto;mix-blend-mode:normal;color-interpolation:sRGB;color-interpolation-filters:linearRGB;solid-color:#000000;solid-opacity:1;vector-effect:none;fill:#ffffff;fill-opacity:1;fill-rule:nonzero;stroke:none;stroke-width:1.07850814;stroke-linecap:square;stroke-linejoin:miter;stroke-miterlimit:4;stroke-dasharray:none;stroke-dashoffset:0;stroke-opacity:1;marker:none;marker-start:none;marker-mid:none;marker-end:none;paint-order:normal;color-rendering:auto;image-rendering:auto;shape-rendering:auto;text-rendering:auto;enable-background:accumulate"
         inkscape:connector-curvature="0" />
      <path
         style="color:#000000;clip-rule:nonzero;display:inline;overflow:visible;visibility:visible;opacity:1;isolation:auto;mix-blend-mode:normal;color-interpolation:sRGB;color-interpolation-filters:linearRGB;solid-color:#000000;solid-opacity:1;vector-effect:none;fill:#ffffff;fill-opacity:1;fill-rule:nonzero;stroke:none;stroke-width:1.07850814;stroke-linecap:square;stroke-linejoin:miter;stroke-miterlimit:4;stroke-dasharray:none;stroke-dashoffset:0;stroke-opacity:1;marker:none;marker-start:none;marker-mid:none;marker-end:none;paint-order:normal;color-rendering:auto;image-rendering:auto;shape-rendering:auto;text-rendering:auto;enable-background:accumulate"
         d="m 169.32075,516.82702 -5.45211,5.45218 v 3.51129 h 9.33398 5.08743 9.33399 v -3.51129 l -5.45211,-5.45218 -0.0469,0.0469 v -0.0337 h -12.7911 z"
         id="path4745"
         inkscape:connector-curvature="0" />
      <path
         id="path4747"
         d="m 187.67881,516.82702 -5.45211,5.45218 v 3.51129 h 9.33398 5.08743 9.33399 v -3.51129 l -5.45211,-5.45218 -0.0469,0.0469 v -0.0337 h -12.7911 z"
         style="color:#000000;clip-rule:nonzero;display:inline;overflow:visible;visibility:visible;opacity:1;isolation:auto;mix-blend-mode:normal;color-interpolation:sRGB;color-interpolation-filters:linearRGB;solid-color:#000000;solid-opacity:1;vector-effect:none;fill:#ffffff;fill-opacity:1;fill-rule:nonzero;stroke:none;stroke-width:1.07850814;stroke-linecap:square;stroke-linejoin:miter;stroke-miterlimit:4;stroke-dasharray:none;stroke-dashoffset:0;stroke-opacity:1;marker:none;marker-start:none;marker-mid:none;marker-end:none;paint-order:normal;color-rendering:auto;image-rendering:auto;shape-rendering:auto;text-rendering:auto;enable-background:accumulate"
         inkscape:connector-curvature="0" />
      <path
         id="path4749"
         d="m 72.343353,516.82702 -5.45211,5.45218 v 3.51129 h 9.33398 5.08743 9.33399 v -3.51129 l -5.45211,-5.45218 -0.0469,0.0469 v -0.0337 h -12.7911 z"
         style="color:#000000;clip-rule:nonzero;display:inline;overflow:visible;visibility:visible;opacity:1;isolation:auto;mix-blend-mode:normal;color-interpolation:sRGB;color-interpolation-filters:linearRGB;solid-color:#000000;solid-opacity:1;vector-effect:none;fill:#ffffff;fill-opacity:1;fill-rule:nonzero;stroke:none;stroke-width:1.07850814;stroke-linecap:square;stroke-linejoin:miter;stroke-miterlimit:4;stroke-dasharray:none;stroke-dashoffset:0;stroke-opacity:1;marker:none;marker-start:none;marker-mid:none;marker-end:none;paint-order:normal;color-rendering:auto;image-rendering:auto;shape-rendering:auto;text-rendering:auto;enable-background:accumulate"
         inkscape:connector-curvature="0" />
      <path
         style="color:#000000;clip-rule:nonzero;display:inline;overflow:visible;visibility:visible;opacity:1;isolation:auto;mix-blend-mode:normal;color-interpolation:sRGB;color-interpolation-filters:linearRGB;solid-color:#000000;solid-opacity:1;vector-effect:none;fill:#ffffff;fill-opacity:1;fill-rule:nonzero;stroke:none;stroke-width:1.07850814;stroke-linecap:square;stroke-linejoin:miter;stroke-miterlimit:4;stroke-dasharray:none;stroke-dashoffset:0;stroke-opacity:1;marker:none;marker-start:none;marker-mid:none;marker-end:none;paint-order:normal;color-rendering:auto;image-rendering:auto;shape-rendering:auto;text-rendering:auto;enable-background:accumulate"
         d="m 92.170053,516.82702 -5.45211,5.45218 v 3.51129 h 9.33398 5.087437 9.33399 v -3.51129 l -5.45211,-5.45218 -0.0469,0.0469 v -0.0337 H 92.183233 Z"
         id="path4751"
         inkscape:connector-curvature="0" />
      <path
         style="color:#000000;clip-rule:nonzero;display:inline;overflow:visible;visibility:visible;opacity:1;isolation:auto;mix-blend-mode:normal;color-interpolation:sRGB;color-interpolation-filters:linearRGB;solid-color:#000000;solid-opacity:1;vector-effect:none;fill:#ffffff;fill-opacity:1;fill-rule:nonzero;stroke:none;stroke-width:1.07850814;stroke-linecap:square;stroke-linejoin:miter;stroke-miterlimit:4;stroke-dasharray:none;stroke-dashoffset:0;stroke-opacity:1;marker:none;marker-start:none;marker-mid:none;marker-end:none;paint-order:normal;color-rendering:auto;image-rendering:auto;shape-rendering:auto;text-rendering:auto;enable-background:accumulate"
         d="m 33.140414,516.82702 -5.45211,5.45218 v 3.51129 h 9.33398 5.08743 9.33399 v -3.51129 l -5.45211,-5.45218 -0.0469,0.0469 v -0.0337 h -12.7911 z"
         id="path4753"
         inkscape:connector-curvature="0" />
      <path
         id="path4755"
         d="m 52.967114,516.82702 -5.45211,5.45218 v 3.51129 h 9.33398 5.087433 9.33399 v -3.51129 l -5.45211,-5.45218 -0.0469,0.0469 v -0.0337 H 52.980294 Z"
         style="color:#000000;clip-rule:nonzero;display:inline;overflow:visible;visibility:visible;opacity:1;isolation:auto;mix-blend-mode:normal;color-interpolation:sRGB;color-interpolation-filters:linearRGB;solid-color:#000000;solid-opacity:1;vector-effect:none;fill:#ffffff;fill-opacity:1;fill-rule:nonzero;stroke:none;stroke-width:1.07850814;stroke-linecap:square;stroke-linejoin:miter;stroke-miterlimit:4;stroke-dasharray:none;stroke-dashoffset:0;stroke-opacity:1;marker:none;marker-start:none;marker-mid:none;marker-end:none;paint-order:normal;color-rendering:auto;image-rendering:auto;shape-rendering:auto;text-rendering:auto;enable-background:accumulate"
         inkscape:connector-curvature="0" />
      <path
         id="path4757"
         d="m 0.52886989,516.82728 -0.13148567,8.96334 0.27615133,-1.3e-4 H 3.1663963 12.500387 v -3.51129 l -5.4521107,-5.45218 -0.0469,0.0469 v -0.0337 l -6.45932641,2.6e-4 z"
         style="color:#000000;clip-rule:nonzero;display:inline;overflow:visible;visibility:visible;opacity:1;isolation:auto;mix-blend-mode:normal;color-interpolation:sRGB;color-interpolation-filters:linearRGB;solid-color:#000000;solid-opacity:1;vector-effect:none;fill:#ffffff;fill-opacity:1;fill-rule:nonzero;stroke:none;stroke-width:1.07850814;stroke-linecap:square;stroke-linejoin:miter;stroke-miterlimit:4;stroke-dasharray:none;stroke-dashoffset:0;stroke-opacity:1;marker:none;marker-start:none;marker-mid:none;marker-end:none;paint-order:normal;color-rendering:auto;image-rendering:auto;shape-rendering:auto;text-rendering:auto;enable-background:accumulate"
         inkscape:connector-curvature="0" />
      <path
         style="color:#000000;clip-rule:nonzero;display:inline;overflow:visible;visibility:visible;opacity:1;isolation:auto;mix-blend-mode:normal;color-interpolation:sRGB;color-interpolation-filters:linearRGB;solid-color:#000000;solid-opacity:1;vector-effect:none;fill:#ffffff;fill-opacity:1;fill-rule:nonzero;stroke:none;stroke-width:1.07850814;stroke-linecap:square;stroke-linejoin:miter;stroke-miterlimit:4;stroke-dasharray:none;stroke-dashoffset:0;stroke-opacity:1;marker:none;marker-start:none;marker-mid:none;marker-end:none;paint-order:normal;color-rendering:auto;image-rendering:auto;shape-rendering:auto;text-rendering:auto;enable-background:accumulate"
         d="m 14.023797,516.82702 -5.4521107,5.45218 v 3.51129 h 9.3339807 5.087433 9.33399 v -3.51129 l -5.45211,-5.45218 -0.0469,0.0469 v -0.0337 H 14.036977 Z"
         id="path4759"
         inkscape:connector-curvature="0" />
      <path
         id="path4761"
         d="m 1093.0267,516.82702 -5.4521,5.45218 v 3.51129 h 9.334 5.0874 9.334 v -3.51129 l -5.4521,-5.45218 -0.047,0.0469 v -0.0337 h -12.7911 z"
         style="color:#000000;clip-rule:nonzero;display:inline;overflow:visible;visibility:visible;opacity:1;isolation:auto;mix-blend-mode:normal;color-interpolation:sRGB;color-interpolation-filters:linearRGB;solid-color:#000000;solid-opacity:1;vector-effect:none;fill:#ffffff;fill-opacity:1;fill-rule:nonzero;stroke:none;stroke-width:1.07850814;stroke-linecap:square;stroke-linejoin:miter;stroke-miterlimit:4;stroke-dasharray:none;stroke-dashoffset:0;stroke-opacity:1;marker:none;marker-start:none;marker-mid:none;marker-end:none;paint-order:normal;color-rendering:auto;image-rendering:auto;shape-rendering:auto;text-rendering:auto;enable-background:accumulate"
         inkscape:connector-curvature="0" />
      <path
         style="color:#000000;clip-rule:nonzero;display:inline;overflow:visible;visibility:visible;opacity:1;isolation:auto;mix-blend-mode:normal;color-interpolation:sRGB;color-interpolation-filters:linearRGB;solid-color:#000000;solid-opacity:1;vector-effect:none;fill:#ffffff;fill-opacity:1;fill-rule:nonzero;stroke:none;stroke-width:1.07850814;stroke-linecap:square;stroke-linejoin:miter;stroke-miterlimit:4;stroke-dasharray:none;stroke-dashoffset:0;stroke-opacity:1;marker:none;marker-start:none;marker-mid:none;marker-end:none;paint-order:normal;color-rendering:auto;image-rendering:auto;shape-rendering:auto;text-rendering:auto;enable-background:accumulate"
         d="m 1112.8534,516.82702 -5.4521,5.45218 v 3.51129 h 9.334 5.0874 1.5747 l 0.024,-8.96343 -0.047,0.0469 v -0.0337 l -10.5074,-4e-5 z"
         id="path4763"
         inkscape:connector-curvature="0" />
      <path
         style="color:#000000;clip-rule:nonzero;display:inline;overflow:visible;visibility:visible;opacity:1;isolation:auto;mix-blend-mode:normal;color-interpolation:sRGB;color-interpolation-filters:linearRGB;solid-color:#000000;solid-opacity:1;vector-effect:none;fill:#ffffff;fill-opacity:1;fill-rule:nonzero;stroke:none;stroke-width:1.07850814;stroke-linecap:square;stroke-linejoin:miter;stroke-miterlimit:4;stroke-dasharray:none;stroke-dashoffset:0;stroke-opacity:1;marker:none;marker-start:none;marker-mid:none;marker-end:none;paint-order:normal;color-rendering:auto;image-rendering:auto;shape-rendering:auto;text-rendering:auto;enable-background:accumulate"
         d="m 1054.0834,516.82702 -5.4521,5.45218 v 3.51129 h 9.334 5.0874 9.334 v -3.51129 l -5.4521,-5.45218 -0.047,0.0469 v -0.0337 h -12.7911 z"
         id="path4765"
         inkscape:connector-curvature="0" />
      <path
         id="path4767"
         d="m 1073.9101,516.82702 -5.4521,5.45218 v 3.51129 h 9.334 5.0874 9.334 v -3.51129 l -5.4521,-5.45218 -0.047,0.0469 v -0.0337 h -12.7911 z"
         style="color:#000000;clip-rule:nonzero;display:inline;overflow:visible;visibility:visible;opacity:1;isolation:auto;mix-blend-mode:normal;color-interpolation:sRGB;color-interpolation-filters:linearRGB;solid-color:#000000;solid-opacity:1;vector-effect:none;fill:#ffffff;fill-opacity:1;fill-rule:nonzero;stroke:none;stroke-width:1.07850814;stroke-linecap:square;stroke-linejoin:miter;stroke-miterlimit:4;stroke-dasharray:none;stroke-dashoffset:0;stroke-opacity:1;marker:none;marker-start:none;marker-mid:none;marker-end:none;paint-order:normal;color-rendering:auto;image-rendering:auto;shape-rendering:auto;text-rendering:auto;enable-background:accumulate"
         inkscape:connector-curvature="0" />
      <rect
         y="523.52509"
         x="0.39738473"
         height="6.4464126"
         width="1123"
         id="rect4769"
         style="color:#000000;clip-rule:nonzero;display:inline;overflow:visible;visibility:visible;opacity:1;isolation:auto;mix-blend-mode:normal;color-interpolation:sRGB;color-interpolation-filters:linearRGB;solid-color:#000000;solid-opacity:1;fill:#ffffff;fill-opacity:1;fill-rule:nonzero;stroke:#919191;stroke-width:0;stroke-linecap:butt;stroke-linejoin:miter;stroke-miterlimit:4;stroke-dasharray:none;stroke-dashoffset:0;stroke-opacity:1;marker:none;color-rendering:auto;image-rendering:auto;shape-rendering:auto;text-rendering:auto;enable-background:accumulate" />
    </g>
  </g>
  <g
     id="g451"
     transform="matrix(0.63896766,0,0,0.63896766,53.637389,17.399865)"
     style="stroke-width:1.56502438">
    <g
       id="g8626"
       transform="matrix(0.26458333,0,0,0.26458333,-0.44476646,3.71171)"
       style="stroke-width:1.56502438">
      <g
         transform="matrix(1.7890736,0,0,1.7890736,-1138.429,-562.32147)"
         id="g4659"
         style="fill:#ffffff;stroke-width:1.56502438">
        <g
           transform="matrix(0.11840388,0,0,0.11840388,865.19335,299.21794)"
           id="g4657"
           style="fill:#ffffff;stroke-width:1.56502438">
          <g
             transform="matrix(1.293235,0,0,1.293235,-4878.321,-1224.915)"
             id="g4655"
             style="fill:#ffffff;stroke-width:1.56502438">
            <g
               transform="matrix(2.438586,0,0,2.438586,3659.952,1113.451)"
               style="fill:#ffffff;fill-opacity:1;fill-rule:nonzero;stroke:none;stroke-width:1.56502438"
               id="g4635">
              <g
                 style="fill:#ffffff;fill-opacity:1;stroke-width:1.56502438"
                 id="g4633">
                <path
                   inkscape:connector-curvature="0"
                   d="M 86.068,0 C 61.466,0 56.851,35.041 70.691,35.041 84.529,35.041 110.671,0 86.068,0 Z"
                   style="fill:#ffffff;fill-opacity:1;stroke-width:1.56502438"
                   id="path4623" />
                <path
                   inkscape:connector-curvature="0"
                   d="M 45.217,30.699 C 52.586,31.149 60.671,2.577 46.821,4.374 32.976,6.171 37.845,30.249 45.217,30.699 Z"
                   style="fill:#ffffff;fill-opacity:1;stroke-width:1.56502438"
                   id="path4625" />
                <path
                   inkscape:connector-curvature="0"
                   d="M 11.445,48.453 C 16.686,46.146 12.12,23.581 3.208,29.735 -5.7,35.89 6.204,50.759 11.445,48.453 Z"
                   style="fill:#ffffff;fill-opacity:1;stroke-width:1.56502438"
                   id="path4627" />
                <path
                   inkscape:connector-curvature="0"
                   d="M 26.212,36.642 C 32.451,35.37 32.793,9.778 21.667,14.369 10.539,18.961 19.978,37.916 26.212,36.642 Z"
                   style="fill:#ffffff;fill-opacity:1;stroke-width:1.56502438"
                   id="path4629" />
                <path
                   inkscape:connector-curvature="0"
                   d="m 58.791,93.913 c 1.107,8.454 -6.202,12.629 -13.36,7.179 C 22.644,83.743 83.16,75.088 79.171,51.386 75.86,31.712 15.495,37.769 8.621,68.553 3.968,89.374 27.774,118.26 52.614,118.26 c 12.22,0 26.315,-11.034 28.952,-25.012 C 83.58,82.589 57.867,86.86 58.791,93.913 Z"
                   style="fill:#ffffff;fill-opacity:1;stroke-width:1.56502438"
                   id="path4631" />
              </g>
            </g>
            <g
               id="g4653"
               style="fill:#ffffff;stroke-width:1.56502438">
              <path
                 inkscape:connector-curvature="0"
                 d="m 4176.2963,1214.4401 c -15.1078,0.4069 -27.0386,5.8367 -35.8126,16.25 -9.0861,10.8369 -13.6562,25.8104 -13.6562,44.9063 0,19.0432 4.5703,33.9757 13.6562,44.8124 9.1305,10.8369 21.6664,16.25 37.6563,16.25 16.034,0 28.6014,-5.4131 37.6875,-16.25 9.0859,-10.8367 13.6251,-25.7692 13.625,-44.8124 -1e-4,-19.0959 -4.5391,-34.0694 -13.625,-44.9063 -9.0861,-10.8366 -21.6536,-16.2499 -37.6875,-16.25 -0.6246,0 -1.2296,-0.016 -1.8437,0 z m 1.125,22 c 0.2415,-0.01 0.4737,0 0.7187,0 7.8833,10e-5 13.9919,3.4114 18.3125,10.25 4.3203,6.8388 6.4999,16.4913 6.5,28.9063 0,12.3623 -2.1799,21.9427 -6.5,28.7812 -4.3204,6.8389 -10.4293,10.2812 -18.3125,10.2812 -7.8391,0 -13.8983,-3.4423 -18.2187,-10.2812 -4.3204,-6.8385 -6.4999,-16.4189 -6.5,-28.7812 0,-12.4149 2.1798,-22.0675 6.5,-28.9063 4.1852,-6.6249 10.0123,-10.0428 17.5,-10.25 z"
                 style="font-style:normal;font-variant:normal;font-weight:bold;font-stretch:normal;font-size:148.699646px;line-height:125%;font-family:'Bitstream Vera Sans';text-align:start;writing-mode:lr-tb;text-anchor:start;fill:#ffffff;fill-opacity:1;stroke:none;stroke-width:1.56502438"
                 id="path4637" />
              <path
                 inkscape:connector-curvature="0"
                 d="m 4005.6293,1325.612 c -13.3076,11.1757 -33.1067,11.0472 -41.3549,11.0472 -16.6133,0 -29.7747,-5.471 -39.4842,-16.413 -9.7097,-10.9946 -14.5644,-25.8819 -14.5644,-44.6622 0,-18.9906 4.9438,-33.9305 14.8316,-44.82 9.8878,-10.8892 23.4277,-16.3339 40.62,-16.334 6.6363,10e-5 12.9831,0.7366 19.0406,2.2094 6.1019,1.473 11.8475,3.6562 17.2368,6.5494 l -6.921,20.4608 c -3.0298,-1.6586 -6.4987,-3.2932 -9.7145,-4.4424 -5.4784,-1.8411 -10.979,-2.7617 -16.5018,-2.7618 -10.2442,10e-5 -18.15,3.3932 -23.7173,10.1792 -5.523,6.7336 -8.2844,16.3867 -8.2844,28.9594 0,12.4676 2.6723,22.0945 8.0172,28.8806 5.3446,6.7861 13.3768,10.1791 22.7818,10.1791 9.5548,0 15.4728,-2.4084 18.6291,-4.9461 v -20.3835 h -20.7001 v -20.3584 h 40.0855"
                 style="font-style:normal;font-variant:normal;font-weight:bold;font-stretch:normal;font-size:148.699646px;line-height:125%;font-family:'Bitstream Vera Sans';text-align:start;writing-mode:lr-tb;text-anchor:start;fill:#ffffff;fill-opacity:1;stroke:none;stroke-width:1.56502438"
                 id="path4639" />
              <path
                 inkscape:connector-curvature="0"
                 d="m 4023.2108,1216.5605 h 16.2279 l 51.2775,70.8022 v -70.8022 h 21.8853 v 117.8103 h -16.2279 l -51.2774,-70.8022 v 70.8022 h -21.8854 v -117.8103"
                 style="font-style:normal;font-variant:normal;font-weight:bold;font-stretch:normal;font-size:148.699646px;line-height:125%;font-family:'Bitstream Vera Sans';text-align:start;writing-mode:lr-tb;text-anchor:start;fill:#ffffff;fill-opacity:1;stroke:none;stroke-width:1.56502438"
                 id="path4641" />
              <path
                 inkscape:connector-curvature="0"
                 d="m 4246.3361,1216.5605 h 32.7366 l 22.7151,73.5479 22.8487,-73.5479 h 27.6698 l 12.5,117.8103 h -24.3186 l -7.5,-73.668 -22.9823,74.0213 h -16.3015 l -22.9824,-76.5213 -7.5,76.168 h -24.3854 l 12.5,-117.8103"
                 style="font-style:normal;font-variant:normal;font-weight:bold;font-stretch:normal;font-size:148.699646px;line-height:125%;font-family:'Bitstream Vera Sans';text-align:start;writing-mode:lr-tb;text-anchor:start;fill:#ffffff;fill-opacity:1;stroke:none;stroke-width:1.56502438"
                 id="path4643" />
              <path
                 inkscape:connector-curvature="0"
                 d="m 4382.3597,1216.5605 h 69.4147 v 22.9624 h -43.6933 v 24.4365 h 33.5877 v 20.4623 h -33.5877 v 26.9868 h 45.1631 v 22.9623 h -70.8845 v -117.8103"
                 style="font-style:normal;font-variant:normal;font-weight:bold;font-stretch:normal;font-size:148.699646px;line-height:125%;font-family:'Bitstream Vera Sans';text-align:start;writing-mode:lr-tb;text-anchor:start;fill:#ffffff;fill-opacity:1;stroke:none;stroke-width:1.56502438"
                 id="path4645" />
              <g
                 style="font-style:normal;font-weight:normal;font-size:30.68958855px;font-family:'Bitstream Vera Sans';fill:#ffffff;fill-opacity:1;stroke:none;stroke-width:1.56502438"
                 id="g4651">
                <path
                   inkscape:connector-curvature="0"
                   d="m 4474.5283,1193.3702 h 18.9262 v 2.5475 h -7.9421 v 19.8253 h -3.042 v -19.8253 h -7.9421 v -2.5475"
                   style="letter-spacing:0.2523815;fill:#ffffff;stroke-width:1.56502438"
                   id="path4647" />
                <path
                   inkscape:connector-curvature="0"
                   d="m 4496.644,1193.3702 h 4.5105 l 5.7093,15.2249 5.7394,-15.2249 h 4.5105 v 22.3728 h -2.9521 v -19.6455 l -5.7693,15.3448 h -3.042 l -5.7692,-15.3448 v 19.6455 h -2.9371 v -22.3728"
                   style="letter-spacing:0.2523815;fill:#ffffff;stroke-width:1.56502438"
                   id="path4649" />
              </g>
            </g>
          </g>
        </g>
      </g>
      <g
         transform="translate(0,114)"
         id="text4663"
         style="color:#000000;font-style:normal;font-variant:normal;font-weight:300;font-stretch:normal;font-size:45.82252502px;line-height:71.5976944px;font-family:'Source Sans Pro';-inkscape-font-specification:'Source Sans Pro, Light';font-variant-ligatures:normal;font-variant-caps:normal;font-variant-numeric:normal;font-feature-settings:normal;text-indent:0;text-align:start;text-decoration:none;text-decoration-line:none;letter-spacing:0px;word-spacing:0px;text-transform:none;writing-mode:lr-tb;direction:ltr;baseline-shift:baseline;text-anchor:start;display:inline;overflow:visible;visibility:visible;fill:#ffffff;fill-opacity:1;fill-rule:nonzero;stroke:none;stroke-width:4.4820857;stroke-linecap:butt;stroke-linejoin:miter;stroke-opacity:1;marker:none;marker-start:none;marker-mid:none;marker-end:none;enable-background:accumulate"
         aria-label="The">
        <path
           inkscape:connector-curvature="0"
           id="path5987"
           style="font-style:normal;font-variant:normal;font-weight:300;font-stretch:normal;font-size:45.82252502px;font-family:'Source Sans Pro';-inkscape-font-specification:'Source Sans Pro, Light';font-variant-ligatures:normal;font-variant-caps:normal;font-variant-numeric:normal;font-feature-settings:normal;text-align:start;writing-mode:lr-tb;text-anchor:start;fill:#ffffff;stroke-width:4.4820857"
           d="m 299.98677,-34.266689 h 2.10784 v -28.364143 h 9.62273 v -1.832901 h -21.3533 v 1.832901 h 9.62273 z" />
        <path
           inkscape:connector-curvature="0"
           id="path5989"
           style="font-style:normal;font-variant:normal;font-weight:300;font-stretch:normal;font-size:45.82252502px;font-family:'Source Sans Pro';-inkscape-font-specification:'Source Sans Pro, Light';font-variant-ligatures:normal;font-variant-caps:normal;font-variant-numeric:normal;font-feature-settings:normal;text-align:start;writing-mode:lr-tb;text-anchor:start;fill:#ffffff;stroke-width:4.4820857"
           d="m 317.23609,-34.266689 h 2.01619 v -16.587754 c 2.70353,-2.749352 4.58225,-4.124028 7.19413,-4.124028 3.57416,0 5.04048,2.199482 5.04048,6.873379 v 13.838403 h 2.01619 v -14.113338 c 0,-5.681993 -2.10783,-8.431345 -6.64426,-8.431345 -3.02429,0 -5.31542,1.695434 -7.60654,3.98656 V -57.682 -67.213085 h -2.01619 z" />
        <path
           inkscape:connector-curvature="0"
           id="path5991"
           style="font-style:normal;font-variant:normal;font-weight:300;font-stretch:normal;font-size:45.82252502px;font-family:'Source Sans Pro';-inkscape-font-specification:'Source Sans Pro, Light';font-variant-ligatures:normal;font-variant-caps:normal;font-variant-numeric:normal;font-feature-settings:normal;text-align:start;writing-mode:lr-tb;text-anchor:start;fill:#ffffff;stroke-width:4.4820857"
           d="m 339.56741,-45.218273 c 0,7.194137 4.53643,11.501454 10.1726,11.501454 3.20758,0 5.17795,-1.099741 6.9192,-2.153659 l -0.8248,-1.557966 c -1.64961,1.191386 -3.52834,1.970369 -5.91111,1.970369 -4.94883,0 -8.20223,-3.98656 -8.29388,-9.531085 h 15.8546 c 0.0916,-0.54987 0.0916,-1.099741 0.0916,-1.649611 0,-6.460976 -3.20757,-10.172601 -8.43134,-10.172601 -4.90301,0 -9.57691,4.398963 -9.57691,11.593099 z m 2.06201,-1.328853 c 0.45823,-5.26959 3.80327,-8.52299 7.56072,-8.52299 3.94074,0 6.46098,2.886819 6.46098,8.52299 z" />
      </g>
      <g
         transform="translate(0,114)"
         id="text4667"
         style="color:#000000;font-style:normal;font-variant:normal;font-weight:300;font-stretch:normal;font-size:45.82252502px;line-height:71.5976944px;font-family:'Source Sans Pro';-inkscape-font-specification:'Source Sans Pro, Light';font-variant-ligatures:normal;font-variant-caps:normal;font-variant-numeric:normal;font-feature-settings:normal;text-indent:0;text-align:start;text-decoration:none;text-decoration-line:none;letter-spacing:0px;word-spacing:0px;text-transform:none;writing-mode:lr-tb;direction:ltr;baseline-shift:baseline;text-anchor:start;display:inline;overflow:visible;visibility:visible;fill:#ffffff;fill-opacity:1;fill-rule:nonzero;stroke:none;stroke-width:4.4820857;stroke-linecap:butt;stroke-linejoin:miter;stroke-opacity:1;marker:none;marker-start:none;marker-mid:none;marker-end:none;enable-background:accumulate"
         aria-label="Conference">
        <path
           inkscape:connector-curvature="0"
           id="path5994"
           style="font-style:normal;font-variant:normal;font-weight:300;font-stretch:normal;font-size:45.82252502px;font-family:'Source Sans Pro';-inkscape-font-specification:'Source Sans Pro, Light';font-variant-ligatures:normal;font-variant-caps:normal;font-variant-numeric:normal;font-feature-settings:normal;text-align:start;writing-mode:lr-tb;text-anchor:start;fill:#ffffff;stroke-width:4.4820857"
           d="m 629.40183,-49.433945 c 0,9.62273 5.17795,15.717126 12.64702,15.717126 3.89491,0 6.64426,-1.649611 8.98121,-4.307317 l -1.28303,-1.328854 c -2.19948,2.474417 -4.49061,3.711625 -7.60654,3.711625 -6.5068,0 -10.53918,-5.407058 -10.53918,-13.79258 0,-8.385522 4.07821,-13.655113 10.72247,-13.655113 2.74935,0 4.94884,1.237209 6.55262,3.07011 l 1.28303,-1.374676 c -1.60378,-1.878724 -4.35314,-3.61998 -7.83565,-3.61998 -7.69818,0 -12.92195,6.002751 -12.92195,15.579659 z" />
        <path
           inkscape:connector-curvature="0"
           id="path5996"
           style="font-style:normal;font-variant:normal;font-weight:300;font-stretch:normal;font-size:45.82252502px;font-family:'Source Sans Pro';-inkscape-font-specification:'Source Sans Pro, Light';font-variant-ligatures:normal;font-variant-caps:normal;font-variant-numeric:normal;font-feature-settings:normal;text-align:start;writing-mode:lr-tb;text-anchor:start;fill:#ffffff;stroke-width:4.4820857"
           d="m 655.12903,-45.218273 c 0,7.285782 4.58225,11.501454 9.85184,11.501454 5.31542,0 9.89767,-4.215672 9.89767,-11.501454 0,-7.377426 -4.58225,-11.593099 -9.89767,-11.593099 -5.26959,0 -9.85184,4.215673 -9.85184,11.593099 z m 2.10784,0 c 0,-5.81946 3.29922,-9.80602 7.744,-9.80602 4.44479,0 7.78983,3.98656 7.78983,9.80602 0,5.773638 -3.34504,9.714376 -7.78983,9.714376 -4.44478,0 -7.744,-3.940738 -7.744,-9.714376 z" />
        <path
           inkscape:connector-curvature="0"
           id="path5998"
           style="font-style:normal;font-variant:normal;font-weight:300;font-stretch:normal;font-size:45.82252502px;font-family:'Source Sans Pro';-inkscape-font-specification:'Source Sans Pro, Light';font-variant-ligatures:normal;font-variant-caps:normal;font-variant-numeric:normal;font-feature-settings:normal;text-align:start;writing-mode:lr-tb;text-anchor:start;fill:#ffffff;stroke-width:4.4820857"
           d="m 681.48414,-34.266689 h 2.01619 v -16.587754 c 2.70353,-2.749352 4.58226,-4.124028 7.19414,-4.124028 3.57416,0 5.04048,2.199482 5.04048,6.873379 v 13.838403 h 2.01619 v -14.113338 c 0,-5.681993 -2.10784,-8.431345 -6.64427,-8.431345 -3.02428,0 -5.31541,1.695434 -7.56071,3.940738 h -0.13747 l -0.18329,-3.390867 h -1.74126 z" />
        <path
           inkscape:connector-curvature="0"
           id="path6000"
           style="font-style:normal;font-variant:normal;font-weight:300;font-stretch:normal;font-size:45.82252502px;font-family:'Source Sans Pro';-inkscape-font-specification:'Source Sans Pro, Light';font-variant-ligatures:normal;font-variant-caps:normal;font-variant-numeric:normal;font-feature-settings:normal;text-align:start;writing-mode:lr-tb;text-anchor:start;fill:#ffffff;stroke-width:4.4820857"
           d="m 714.80857,-67.029795 c -1.00809,-0.458225 -2.19948,-0.73316 -3.20757,-0.73316 -3.48251,0 -5.45288,2.245304 -5.45288,6.598444 v 4.90301 l -3.02429,0.18329 v 1.557966 h 3.02429 v 20.253556 h 2.01619 v -20.253556 h 5.0863 v -1.741256 h -5.0863 v -4.765543 c 0,-3.161754 1.09974,-4.994655 3.43669,-4.994655 0.8248,0 1.74125,0.18329 2.6577,0.641515 z" />
        <path
           inkscape:connector-curvature="0"
           id="path6002"
           style="font-style:normal;font-variant:normal;font-weight:300;font-stretch:normal;font-size:45.82252502px;font-family:'Source Sans Pro';-inkscape-font-specification:'Source Sans Pro, Light';font-variant-ligatures:normal;font-variant-caps:normal;font-variant-numeric:normal;font-feature-settings:normal;text-align:start;writing-mode:lr-tb;text-anchor:start;fill:#ffffff;stroke-width:4.4820857"
           d="m 715.62909,-45.218273 c 0,7.194137 4.53643,11.501454 10.1726,11.501454 3.20757,0 5.17794,-1.099741 6.9192,-2.153659 l -0.82481,-1.557966 c -1.64961,1.191386 -3.52833,1.970369 -5.9111,1.970369 -4.94884,0 -8.20224,-3.98656 -8.29388,-9.531085 h 15.85459 c 0.0916,-0.54987 0.0916,-1.099741 0.0916,-1.649611 0,-6.460976 -3.20758,-10.172601 -8.43135,-10.172601 -4.90301,0 -9.5769,4.398963 -9.5769,11.593099 z m 2.06201,-1.328853 c 0.45823,-5.26959 3.80327,-8.52299 7.56072,-8.52299 3.94073,0 6.46097,2.886819 6.46097,8.52299 z" />
        <path
           inkscape:connector-curvature="0"
           id="path6004"
           style="font-style:normal;font-variant:normal;font-weight:300;font-stretch:normal;font-size:45.82252502px;font-family:'Source Sans Pro';-inkscape-font-specification:'Source Sans Pro, Light';font-variant-ligatures:normal;font-variant-caps:normal;font-variant-numeric:normal;font-feature-settings:normal;text-align:start;writing-mode:lr-tb;text-anchor:start;fill:#ffffff;stroke-width:4.4820857"
           d="m 739.56778,-34.266689 h 2.01619 v -14.983966 c 1.69543,-4.124027 4.03238,-5.636171 6.00275,-5.636171 0.87063,0 1.28303,0.09164 2.01619,0.366581 l 0.45822,-1.832901 c -0.73316,-0.366581 -1.37467,-0.458226 -2.19948,-0.458226 -2.61188,0 -4.76554,1.924546 -6.23186,4.628075 h -0.13747 l -0.18329,-4.078204 h -1.74125 z" />
        <path
           inkscape:connector-curvature="0"
           id="path6006"
           style="font-style:normal;font-variant:normal;font-weight:300;font-stretch:normal;font-size:45.82252502px;font-family:'Source Sans Pro';-inkscape-font-specification:'Source Sans Pro, Light';font-variant-ligatures:normal;font-variant-caps:normal;font-variant-numeric:normal;font-feature-settings:normal;text-align:start;writing-mode:lr-tb;text-anchor:start;fill:#ffffff;stroke-width:4.4820857"
           d="m 751.78592,-45.218273 c 0,7.194137 4.53643,11.501454 10.1726,11.501454 3.20758,0 5.17795,-1.099741 6.91921,-2.153659 l -0.82481,-1.557966 c -1.64961,1.191386 -3.52833,1.970369 -5.91111,1.970369 -4.94883,0 -8.20223,-3.98656 -8.29387,-9.531085 h 15.85459 c 0.0916,-0.54987 0.0916,-1.099741 0.0916,-1.649611 0,-6.460976 -3.20758,-10.172601 -8.43135,-10.172601 -4.90301,0 -9.57691,4.398963 -9.57691,11.593099 z m 2.06202,-1.328853 c 0.45822,-5.26959 3.80327,-8.52299 7.56071,-8.52299 3.94074,0 6.46098,2.886819 6.46098,8.52299 z" />
        <path
           inkscape:connector-curvature="0"
           id="path6008"
           style="font-style:normal;font-variant:normal;font-weight:300;font-stretch:normal;font-size:45.82252502px;font-family:'Source Sans Pro';-inkscape-font-specification:'Source Sans Pro, Light';font-variant-ligatures:normal;font-variant-caps:normal;font-variant-numeric:normal;font-feature-settings:normal;text-align:start;writing-mode:lr-tb;text-anchor:start;fill:#ffffff;stroke-width:4.4820857"
           d="m 775.72461,-34.266689 h 2.0162 v -16.587754 c 2.70352,-2.749352 4.58225,-4.124028 7.19413,-4.124028 3.57416,0 5.04048,2.199482 5.04048,6.873379 v 13.838403 h 2.01619 v -14.113338 c 0,-5.681993 -2.10784,-8.431345 -6.64427,-8.431345 -3.02428,0 -5.31541,1.695434 -7.56071,3.940738 h -0.13747 l -0.18329,-3.390867 h -1.74126 z" />
        <path
           inkscape:connector-curvature="0"
           id="path6010"
           style="font-style:normal;font-variant:normal;font-weight:300;font-stretch:normal;font-size:45.82252502px;font-family:'Source Sans Pro';-inkscape-font-specification:'Source Sans Pro, Light';font-variant-ligatures:normal;font-variant-caps:normal;font-variant-numeric:normal;font-feature-settings:normal;text-align:start;writing-mode:lr-tb;text-anchor:start;fill:#ffffff;stroke-width:4.4820857"
           d="m 798.23493,-45.218273 c 0,7.285782 4.30732,11.501454 9.98931,11.501454 2.79517,0 5.13212,-1.237208 7.01085,-2.932642 l -1.05392,-1.374675 c -1.51215,1.374675 -3.52834,2.520239 -5.86529,2.520239 -4.81136,0 -7.97311,-3.940738 -7.97311,-9.714376 0,-5.81946 3.48251,-9.80602 7.97311,-9.80602 2.15366,0 3.80327,1.008095 5.22377,2.336949 l 1.19139,-1.420499 c -1.46632,-1.374675 -3.43669,-2.703529 -6.46098,-2.703529 -5.36123,0 -10.03513,4.215673 -10.03513,11.593099 z" />
        <path
           inkscape:connector-curvature="0"
           id="path6012"
           style="font-style:normal;font-variant:normal;font-weight:300;font-stretch:normal;font-size:45.82252502px;font-family:'Source Sans Pro';-inkscape-font-specification:'Source Sans Pro, Light';font-variant-ligatures:normal;font-variant-caps:normal;font-variant-numeric:normal;font-feature-settings:normal;text-align:start;writing-mode:lr-tb;text-anchor:start;fill:#ffffff;stroke-width:4.4820857"
           d="m 818.01378,-45.218273 c 0,7.194137 4.53643,11.501454 10.1726,11.501454 3.20758,0 5.17795,-1.099741 6.91921,-2.153659 l -0.82481,-1.557966 c -1.64961,1.191386 -3.52833,1.970369 -5.91111,1.970369 -4.94883,0 -8.20223,-3.98656 -8.29387,-9.531085 h 15.85459 c 0.0916,-0.54987 0.0916,-1.099741 0.0916,-1.649611 0,-6.460976 -3.20758,-10.172601 -8.43135,-10.172601 -4.90301,0 -9.57691,4.398963 -9.57691,11.593099 z m 2.06202,-1.328853 c 0.45822,-5.26959 3.80327,-8.52299 7.56071,-8.52299 3.94074,0 6.46098,2.886819 6.46098,8.52299 z" />
      </g>
    </g>
    <g
       aria-label="GUADEC"
       transform="matrix(0.26513467,0,0,0.26403314,-0.03841873,33.87421)"
       style="font-style:normal;font-variant:normal;font-weight:bold;font-stretch:normal;font-size:144.00541687px;line-height:125%;font-family:Cantarell;-inkscape-font-specification:'Cantarell Bold';text-align:start;letter-spacing:0px;word-spacing:0px;writing-mode:lr-tb;text-anchor:start;fill:#ffffff;fill-opacity:1;stroke:none;stroke-width:1.66935945"
       id="text4685">
      <path
         inkscape:connector-curvature="0"
         d="m 274.14462,61.365263 c 0,33.553262 20.01675,51.841947 49.82587,51.841947 17.42466,0 30.67315,-4.32016 40.32152,-11.95245 V 55.461041 h -43.92166 v 16.272612 h 26.20899 v 21.02479 c -5.90422,2.880109 -10.51239,4.176158 -19.72874,4.176158 -20.30477,0 -34.99332,-11.664439 -34.99332,-36.289365 0,-23.328878 10.94441,-34.27329 35.42533,-34.27329 11.52044,0 21.60082,4.032152 29.2331,7.920298 l 4.89619,-15.69659 c -9.50436,-5.760217 -22.46485,-8.49632 -34.5613,-8.49632 -35.13732,0 -52.70598,20.448769 -52.70598,51.265929 z"
         style="fill:#ffffff;stroke-width:1.66935945"
         id="path5951" />
      <path
         inkscape:connector-curvature="0"
         d="m 425.11629,113.20721 c 27.93705,0 41.32956,-13.536507 41.32956,-42.33759 V 12.11541 h -18.00068 v 57.890178 c 0,18.720704 -7.63229,26.641002 -23.32888,26.641002 -15.26457,0 -23.32888,-8.640325 -23.32888,-26.641002 V 12.11541 h -17.71266 v 58.75421 c 0,28.657078 13.3925,42.33759 41.04154,42.33759 z"
         style="fill:#ffffff;stroke-width:1.66935945"
         id="path5953" />
      <path
         inkscape:connector-curvature="0"
         d="m 477.38126,111.76716 h 17.85667 l 9.50436,-26.496998 h 38.16143 l 9.79237,26.496998 h 17.71267 L 532.82335,12.11541 h -18.00068 z m 33.12125,-42.625605 12.96048,-37.729419 13.39251,37.729419 z"
         style="fill:#ffffff;stroke-width:1.66935945"
         id="path5955" />
      <path
         inkscape:connector-curvature="0"
         d="m 669.22572,58.341149 c 0,-30.529149 -21.02479,-46.225739 -53.85803,-46.225739 h -33.98528 v 99.65175 h 25.05694 c 11.37643,0 17.42466,-0.14401 26.353,-2.01608 23.04086,-6.48024 36.43337,-23.904897 36.43337,-51.409931 z M 615.79971,28.388022 c 22.89686,0 35.71334,10.800406 35.71334,32.401219 0,25.632964 -15.40858,34.705305 -40.46552,34.705305 H 599.09508 V 28.388022 Z"
         style="fill:#ffffff;stroke-width:1.66935945"
         id="path5957" />
      <path
         inkscape:connector-curvature="0"
         d="m 685.16757,111.76716 h 65.09045 V 95.494546 H 702.88023 V 67.269485 h 42.19359 V 50.996873 H 702.88023 V 28.388022 h 47.37779 V 12.11541 h -65.09045 z"
         style="fill:#ffffff;stroke-width:1.66935945"
         id="path5959" />
      <path
         inkscape:connector-curvature="0"
         d="m 761.00668,61.077252 c 0,31.249175 19.72874,52.129958 49.68187,52.129958 10.22438,0 24.19291,-2.7361 36.14536,-7.48828 l -4.89619,-15.696589 c -9.50436,4.608173 -22.17683,6.91226 -29.66511,6.91226 -20.16076,0 -33.55327,-13.53651 -33.55327,-35.857349 0,-20.448769 11.08842,-34.705306 31.53719,-34.705306 11.08842,0 21.3128,1.296049 30.52915,7.632287 l 4.89618,-15.69659 c -10.08038,-6.336238 -22.60885,-8.208309 -33.26525,-8.208309 -31.68119,0 -51.40993,20.016753 -51.40993,50.977918 z"
         style="fill:#ffffff;stroke-width:1.66935945"
         id="path5961" />
    </g>
    <g
       transform="matrix(0.26458333,0,0,0.26458333,-0.10514124,3.71171)"
       aria-label="Registration &amp; Paper submissions"
       style="font-style:normal;font-weight:normal;font-size:40px;line-height:36.32125854px;font-family:sans-serif;letter-spacing:0px;word-spacing:0px;fill:#ffffff;fill-opacity:1;stroke:none;stroke-width:1.56502438px;stroke-linecap:butt;stroke-linejoin:miter;stroke-opacity:1"
       id="text8548">
      <path
         inkscape:connector-curvature="0"
         d="m 259.06752,299.11384 h 4.92 c 4.6,0 7.12,1.36 7.12,5.24 0,3.8 -2.52,5.64 -7.12,5.64 h -4.92 z m 16.6,26.32 -7.52,-12.84 c 4,-0.96 6.64,-3.68 6.64,-8.24 0,-6.12 -4.28,-8.24 -10.24,-8.24 h -9.2 v 29.32 h 3.72 v -12.44 h 5.28 l 7.12,12.44 z"
         style="font-style:normal;font-variant:normal;font-weight:normal;font-stretch:normal;font-family:'Source Han Sans TW';-inkscape-font-specification:'Source Han Sans TW';stroke-width:1.56502438px"
         id="path8684" />
      <path
         inkscape:connector-curvature="0"
         d="m 288.70939,325.95384 c 2.96,0 5.28,-1 7.2,-2.24 l -1.32,-2.4 c -1.6,1.08 -3.32,1.72 -5.44,1.72 -4.12,0 -6.96,-2.96 -7.2,-7.6 h 14.64 c 0.08,-0.52 0.16,-1.28 0.16,-2.08 0,-6.2 -3.12,-10.2 -8.64,-10.2 -5.04,0 -9.8,4.4 -9.8,11.44 0,7.16 4.64,11.36 10.4,11.36 z m -6.8,-13.12 c 0.44,-4.28 3.16,-6.76 6.24,-6.76 3.4,0 5.4,2.36 5.4,6.76 z"
         style="font-style:normal;font-variant:normal;font-weight:normal;font-stretch:normal;font-family:'Source Han Sans TW';-inkscape-font-specification:'Source Han Sans TW';stroke-width:1.56502438px"
         id="path8686" />
      <path
         inkscape:connector-curvature="0"
         d="m 308.98814,335.43384 c 6.72,0 10.96,-3.48 10.96,-7.52 0,-3.56 -2.52,-5.16 -7.56,-5.16 h -4.24 c -2.92,0 -3.8,-0.96 -3.8,-2.36 0,-1.2 0.6,-1.92 1.4,-2.6 0.96,0.48 2.16,0.76 3.24,0.76 4.4,0 7.92,-2.92 7.92,-7.56 0,-1.88 -0.72,-3.48 -1.76,-4.48 h 4.44 v -2.8 h -7.56 c -0.76,-0.28 -1.84,-0.56 -3.04,-0.56 -4.4,0 -8.16,3 -8.16,7.76 0,2.6 1.4,4.68 2.84,5.84 v 0.16 c -1.12,0.8 -2.44,2.24 -2.44,4.04 0,1.72 0.84,2.88 2,3.56 v 0.16 c -2.04,1.32 -3.24,3.08 -3.24,4.92 0,3.76 3.68,5.84 9,5.84 z m 0,-19.36 c -2.52,0 -4.64,-2 -4.64,-5.16 0,-3.2 2.08,-5.08 4.64,-5.08 2.56,0 4.6,1.92 4.6,5.08 0,3.16 -2.12,5.16 -4.6,5.16 z m 0.52,16.88 c -3.96,0 -6.32,-1.52 -6.32,-3.84 0,-1.28 0.68,-2.56 2.24,-3.68 0.96,0.24 2,0.36 2.8,0.36 h 3.76 c 2.88,0 4.44,0.68 4.44,2.68 0,2.28 -2.76,4.48 -6.92,4.48 z"
         style="font-style:normal;font-variant:normal;font-weight:normal;font-stretch:normal;font-family:'Source Han Sans TW';-inkscape-font-specification:'Source Han Sans TW';stroke-width:1.56502438px"
         id="path8688" />
      <path
         inkscape:connector-curvature="0"
         d="m 324.16814,325.43384 h 3.64 v -21.72 h -3.64 z m 1.84,-26.2 c 1.44,0 2.52,-1 2.52,-2.36 0,-1.48 -1.08,-2.36 -2.52,-2.36 -1.44,0 -2.52,0.88 -2.52,2.36 0,1.36 1.08,2.36 2.52,2.36 z"
         style="font-style:normal;font-variant:normal;font-weight:normal;font-stretch:normal;font-family:'Source Han Sans TW';-inkscape-font-specification:'Source Han Sans TW';stroke-width:1.56502438px"
         id="path8690" />
      <path
         inkscape:connector-curvature="0"
         d="m 340.86377,325.95384 c 5.12,0 7.92,-2.92 7.92,-6.44 0,-4.12 -3.48,-5.4 -6.64,-6.6 -2.44,-0.92 -4.8,-1.68 -4.8,-3.76 0,-1.68 1.24,-3.12 3.96,-3.12 1.96,0 3.48,0.8 5,1.92 l 1.76,-2.36 c -1.72,-1.32 -4.08,-2.44 -6.76,-2.44 -4.72,0 -7.48,2.72 -7.48,6.16 0,3.68 3.44,5.16 6.48,6.28 2.4,0.92 4.96,1.92 4.96,4.12 0,1.88 -1.4,3.4 -4.28,3.4 -2.6,0 -4.56,-1.04 -6.44,-2.56 l -1.8,2.4 c 2.08,1.72 5.04,3 8.12,3 z"
         style="font-style:normal;font-variant:normal;font-weight:normal;font-stretch:normal;font-family:'Source Han Sans TW';-inkscape-font-specification:'Source Han Sans TW';stroke-width:1.56502438px"
         id="path8692" />
      <path
         inkscape:connector-curvature="0"
         d="m 359.91439,325.95384 c 1.32,0 2.76,-0.4 4,-0.8 l -0.72,-2.72 c -0.72,0.28 -1.72,0.56 -2.48,0.56 -2.52,0 -3.36,-1.52 -3.36,-4.2 v -12.12 h 5.88 v -2.96 h -5.88 v -6.08 h -3.04 l -0.44,6.08 -3.4,0.2 v 2.76 h 3.24 v 12.04 c 0,4.36 1.56,7.24 6.2,7.24 z"
         style="font-style:normal;font-variant:normal;font-weight:normal;font-stretch:normal;font-family:'Source Han Sans TW';-inkscape-font-specification:'Source Han Sans TW';stroke-width:1.56502438px"
         id="path8694" />
      <path
         inkscape:connector-curvature="0"
         d="m 368.15252,325.43384 h 3.64 v -13.96 c 1.44,-3.72 3.68,-5 5.48,-5 0.88,0 1.4,0.08 2.12,0.36 l 0.68,-3.2 c -0.68,-0.36 -1.36,-0.48 -2.32,-0.48 -2.44,0 -4.64,1.76 -6.16,4.52 h -0.12 l -0.32,-3.96 h -3 z"
         style="font-style:normal;font-variant:normal;font-weight:normal;font-stretch:normal;font-family:'Source Han Sans TW';-inkscape-font-specification:'Source Han Sans TW';stroke-width:1.56502438px"
         id="path8696" />
      <path
         inkscape:connector-curvature="0"
         d="m 387.60564,325.95384 c 2.68,0 5.12,-1.4 7.2,-3.12 h 0.12 l 0.32,2.6 h 3 v -13.36 c 0,-5.36 -2.24,-8.92 -7.52,-8.92 -3.48,0 -6.56,1.56 -8.56,2.84 l 1.44,2.52 c 1.72,-1.16 4,-2.32 6.52,-2.32 3.56,0 4.48,2.68 4.48,5.48 -9.24,1.04 -13.36,3.4 -13.36,8.12 0,3.92 2.72,6.16 6.36,6.16 z m 1.04,-2.92 c -2.16,0 -3.84,-1 -3.84,-3.48 0,-2.8 2.48,-4.6 9.8,-5.48 v 6.08 c -2.12,1.88 -3.84,2.88 -5.96,2.88 z"
         style="font-style:normal;font-variant:normal;font-weight:normal;font-stretch:normal;font-family:'Source Han Sans TW';-inkscape-font-specification:'Source Han Sans TW';stroke-width:1.56502438px"
         id="path8698" />
      <path
         inkscape:connector-curvature="0"
         d="m 411.39877,325.95384 c 1.32,0 2.76,-0.4 4,-0.8 l -0.72,-2.72 c -0.72,0.28 -1.72,0.56 -2.48,0.56 -2.52,0 -3.36,-1.52 -3.36,-4.2 v -12.12 h 5.88 v -2.96 h -5.88 v -6.08 h -3.04 l -0.44,6.08 -3.4,0.2 v 2.76 h 3.24 v 12.04 c 0,4.36 1.56,7.24 6.2,7.24 z"
         style="font-style:normal;font-variant:normal;font-weight:normal;font-stretch:normal;font-family:'Source Han Sans TW';-inkscape-font-specification:'Source Han Sans TW';stroke-width:1.56502438px"
         id="path8700" />
      <path
         inkscape:connector-curvature="0"
         d="m 419.63689,325.43384 h 3.64 v -21.72 h -3.64 z m 1.84,-26.2 c 1.44,0 2.52,-1 2.52,-2.36 0,-1.48 -1.08,-2.36 -2.52,-2.36 -1.44,0 -2.52,0.88 -2.52,2.36 0,1.36 1.08,2.36 2.52,2.36 z"
         style="font-style:normal;font-variant:normal;font-weight:normal;font-stretch:normal;font-family:'Source Han Sans TW';-inkscape-font-specification:'Source Han Sans TW';stroke-width:1.56502438px"
         id="path8702" />
      <path
         inkscape:connector-curvature="0"
         d="m 439.09252,325.95384 c 5.32,0 10.08,-4.16 10.08,-11.36 0,-7.24 -4.76,-11.44 -10.08,-11.44 -5.32,0 -10.08,4.2 -10.08,11.44 0,7.2 4.76,11.36 10.08,11.36 z m 0,-3.04 c -3.76,0 -6.28,-3.32 -6.28,-8.32 0,-5 2.52,-8.4 6.28,-8.4 3.76,0 6.32,3.4 6.32,8.4 0,5 -2.56,8.32 -6.32,8.32 z"
         style="font-style:normal;font-variant:normal;font-weight:normal;font-stretch:normal;font-family:'Source Han Sans TW';-inkscape-font-specification:'Source Han Sans TW';stroke-width:1.56502438px"
         id="path8704" />
      <path
         inkscape:connector-curvature="0"
         d="m 454.87127,325.43384 h 3.64 v -15.76 c 2.2,-2.2 3.72,-3.32 5.96,-3.32 2.88,0 4.12,1.72 4.12,5.8 v 13.28 h 3.64 v -13.76 c 0,-5.56 -2.08,-8.52 -6.64,-8.52 -2.96,0 -5.2,1.64 -7.28,3.68 h -0.12 l -0.32,-3.12 h -3 z"
         style="font-style:normal;font-variant:normal;font-weight:normal;font-stretch:normal;font-family:'Source Han Sans TW';-inkscape-font-specification:'Source Han Sans TW';stroke-width:1.56502438px"
         id="path8706" />
      <path
         inkscape:connector-curvature="0"
         d="m 489.62877,317.63384 c 0,-2.28 1.6,-4.04 3.68,-5.72 2.08,3.16 4.84,6.24 7.72,8.76 -1.68,1.44 -3.6,2.36 -5.6,2.36 -3.28,0 -5.8,-2.16 -5.8,-5.4 z m 3.44,-15.2 c 0,-2.44 1.4,-4.24 3.6,-4.24 2,0 2.8,1.52 2.8,3.24 0,2.6 -2.32,4.4 -5,6.2 -0.88,-1.8 -1.4,-3.6 -1.4,-5.2 z m 18.08,20.48 c -1.64,-0.44 -3.52,-1.4 -5.48,-2.8 2.32,-3.04 4,-6.6 5.12,-10.48 h -3.36 c -0.92,3.36 -2.32,6.28 -4.16,8.68 -2.8,-2.28 -5.52,-5.24 -7.44,-8.28 3.24,-2.36 6.6,-4.84 6.6,-8.68 0,-3.4 -2.12,-5.8 -5.76,-5.8 -4.04,0 -6.76,3.04 -6.76,6.96 0,2.12 0.72,4.48 1.92,6.84 -3,2.08 -5.76,4.56 -5.76,8.48 0,4.72 3.6,8.12 8.92,8.12 3.48,0 6.24,-1.32 8.48,-3.36 2.36,1.68 4.64,2.8 6.68,3.36 z"
         style="font-style:normal;font-variant:normal;font-weight:normal;font-stretch:normal;font-family:'Source Han Sans TW';-inkscape-font-specification:'Source Han Sans TW';stroke-width:1.56502438px"
         id="path8708" />
      <path
         inkscape:connector-curvature="0"
         d="m 524.80064,325.43384 h 3.72 v -11.64 h 4.84 c 6.4,0 10.8,-2.88 10.8,-9.08 0,-6.4 -4.4,-8.6 -11,-8.6 h -8.36 z m 3.72,-14.64 v -11.68 h 4.2 c 5.16,0 7.76,1.36 7.76,5.6 0,4.2 -2.44,6.08 -7.6,6.08 z"
         style="font-style:normal;font-variant:normal;font-weight:normal;font-stretch:normal;font-family:'Source Han Sans TW';-inkscape-font-specification:'Source Han Sans TW';stroke-width:1.56502438px"
         id="path8710" />
      <path
         inkscape:connector-curvature="0"
         d="m 552.84002,325.95384 c 2.68,0 5.12,-1.4 7.2,-3.12 h 0.12 l 0.32,2.6 h 3 v -13.36 c 0,-5.36 -2.24,-8.92 -7.52,-8.92 -3.48,0 -6.56,1.56 -8.56,2.84 l 1.44,2.52 c 1.72,-1.16 4,-2.32 6.52,-2.32 3.56,0 4.48,2.68 4.48,5.48 -9.24,1.04 -13.36,3.4 -13.36,8.12 0,3.92 2.72,6.16 6.36,6.16 z m 1.04,-2.92 c -2.16,0 -3.84,-1 -3.84,-3.48 0,-2.8 2.48,-4.6 9.8,-5.48 v 6.08 c -2.12,1.88 -3.84,2.88 -5.96,2.88 z"
         style="font-style:normal;font-variant:normal;font-weight:normal;font-stretch:normal;font-family:'Source Han Sans TW';-inkscape-font-specification:'Source Han Sans TW';stroke-width:1.56502438px"
         id="path8712" />
      <path
         inkscape:connector-curvature="0"
         d="m 570.41814,334.59384 h 3.64 v -7.36 l -0.08,-3.8 c 1.96,1.6 4.04,2.52 6,2.52 5,0 9.44,-4.28 9.44,-11.72 0,-6.68 -3.04,-11.08 -8.64,-11.08 -2.52,0 -4.96,1.44 -6.92,3.04 h -0.12 l -0.32,-2.48 h -3 z m 8.96,-11.68 c -1.44,0 -3.36,-0.6 -5.32,-2.28 v -11.4 c 2.12,-1.96 4,-3 5.84,-3 4.12,0 5.72,3.24 5.72,8.04 0,5.4 -2.64,8.64 -6.24,8.64 z"
         style="font-style:normal;font-variant:normal;font-weight:normal;font-stretch:normal;font-family:'Source Han Sans TW';-inkscape-font-specification:'Source Han Sans TW';stroke-width:1.56502438px"
         id="path8714" />
      <path
         inkscape:connector-curvature="0"
         d="m 603.94377,325.95384 c 2.96,0 5.28,-1 7.2,-2.24 l -1.32,-2.4 c -1.6,1.08 -3.32,1.72 -5.44,1.72 -4.12,0 -6.96,-2.96 -7.2,-7.6 h 14.64 c 0.08,-0.52 0.16,-1.28 0.16,-2.08 0,-6.2 -3.12,-10.2 -8.64,-10.2 -5.04,0 -9.8,4.4 -9.8,11.44 0,7.16 4.64,11.36 10.4,11.36 z m -6.8,-13.12 c 0.44,-4.28 3.16,-6.76 6.24,-6.76 3.4,0 5.4,2.36 5.4,6.76 z"
         style="font-style:normal;font-variant:normal;font-weight:normal;font-stretch:normal;font-family:'Source Han Sans TW';-inkscape-font-specification:'Source Han Sans TW';stroke-width:1.56502438px"
         id="path8716" />
      <path
         inkscape:connector-curvature="0"
         d="m 617.37127,325.43384 h 3.64 v -13.96 c 1.44,-3.72 3.68,-5 5.48,-5 0.88,0 1.4,0.08 2.12,0.36 l 0.68,-3.2 c -0.68,-0.36 -1.36,-0.48 -2.32,-0.48 -2.44,0 -4.64,1.76 -6.16,4.52 h -0.12 l -0.32,-3.96 h -3 z"
         style="font-style:normal;font-variant:normal;font-weight:normal;font-stretch:normal;font-family:'Source Han Sans TW';-inkscape-font-specification:'Source Han Sans TW';stroke-width:1.56502438px"
         id="path8718" />
      <path
         inkscape:connector-curvature="0"
         d="m 647.58252,325.95384 c 5.12,0 7.92,-2.92 7.92,-6.44 0,-4.12 -3.48,-5.4 -6.64,-6.6 -2.44,-0.92 -4.8,-1.68 -4.8,-3.76 0,-1.68 1.24,-3.12 3.96,-3.12 1.96,0 3.48,0.8 5,1.92 l 1.76,-2.36 c -1.72,-1.32 -4.08,-2.44 -6.76,-2.44 -4.72,0 -7.48,2.72 -7.48,6.16 0,3.68 3.44,5.16 6.48,6.28 2.4,0.92 4.96,1.92 4.96,4.12 0,1.88 -1.4,3.4 -4.28,3.4 -2.6,0 -4.56,-1.04 -6.44,-2.56 l -1.8,2.4 c 2.08,1.72 5.04,3 8.12,3 z"
         style="font-style:normal;font-variant:normal;font-weight:normal;font-stretch:normal;font-family:'Source Han Sans TW';-inkscape-font-specification:'Source Han Sans TW';stroke-width:1.56502438px"
         id="path8720" />
      <path
         inkscape:connector-curvature="0"
         d="m 666.97252,325.95384 c 3,0 5.16,-1.56 7.2,-3.92 h 0.12 l 0.28,3.4 h 3.04 v -21.72 h -3.64 v 15.4 c -2.08,2.6 -3.64,3.68 -5.88,3.68 -2.88,0 -4.08,-1.72 -4.08,-5.76 v -13.32 h -3.64 v 13.76 c 0,5.52 2.04,8.48 6.6,8.48 z"
         style="font-style:normal;font-variant:normal;font-weight:normal;font-stretch:normal;font-family:'Source Han Sans TW';-inkscape-font-specification:'Source Han Sans TW';stroke-width:1.56502438px"
         id="path8722" />
      <path
         inkscape:connector-curvature="0"
         d="m 694.50939,325.95384 c 5,0 9.44,-4.28 9.44,-11.76 0,-6.64 -3.04,-11.04 -8.68,-11.04 -2.4,0 -4.84,1.36 -6.8,3.08 l 0.12,-3.92 v -8.72 h -3.64 v 31.84 h 2.92 l 0.32,-2.24 h 0.12 c 1.92,1.76 4.2,2.76 6.2,2.76 z m -0.6,-3.04 c -1.44,0 -3.4,-0.6 -5.32,-2.28 v -11.4 c 2.08,-1.96 4,-3 5.84,-3 4.12,0 5.72,3.24 5.72,8.04 0,5.4 -2.64,8.64 -6.24,8.64 z"
         style="font-style:normal;font-variant:normal;font-weight:normal;font-stretch:normal;font-family:'Source Han Sans TW';-inkscape-font-specification:'Source Han Sans TW';stroke-width:1.56502438px"
         id="path8724" />
      <path
         inkscape:connector-curvature="0"
         d="m 709.63689,325.43384 h 3.64 v -15.76 c 2,-2.24 3.84,-3.32 5.48,-3.32 2.76,0 4.04,1.72 4.04,5.8 v 13.28 h 3.64 v -15.76 c 2.04,-2.24 3.8,-3.32 5.48,-3.32 2.76,0 4.04,1.72 4.04,5.8 v 13.28 h 3.64 v -13.76 c 0,-5.56 -2.12,-8.52 -6.6,-8.52 -2.64,0 -4.92,1.72 -7.16,4.16 -0.88,-2.56 -2.68,-4.16 -6,-4.16 -2.6,0 -4.88,1.64 -6.76,3.72 h -0.12 l -0.32,-3.16 h -3 z"
         style="font-style:normal;font-variant:normal;font-weight:normal;font-stretch:normal;font-family:'Source Han Sans TW';-inkscape-font-specification:'Source Han Sans TW';stroke-width:1.56502438px"
         id="path8726" />
      <path
         inkscape:connector-curvature="0"
         d="m 746.66814,325.43384 h 3.64 v -21.72 h -3.64 z m 1.84,-26.2 c 1.44,0 2.52,-1 2.52,-2.36 0,-1.48 -1.08,-2.36 -2.52,-2.36 -1.44,0 -2.52,0.88 -2.52,2.36 0,1.36 1.08,2.36 2.52,2.36 z"
         style="font-style:normal;font-variant:normal;font-weight:normal;font-stretch:normal;font-family:'Source Han Sans TW';-inkscape-font-specification:'Source Han Sans TW';stroke-width:1.56502438px"
         id="path8728" />
      <path
         inkscape:connector-curvature="0"
         d="m 763.36377,325.95384 c 5.12,0 7.92,-2.92 7.92,-6.44 0,-4.12 -3.48,-5.4 -6.64,-6.6 -2.44,-0.92 -4.8,-1.68 -4.8,-3.76 0,-1.68 1.24,-3.12 3.96,-3.12 1.96,0 3.48,0.8 5,1.92 l 1.76,-2.36 c -1.72,-1.32 -4.08,-2.44 -6.76,-2.44 -4.72,0 -7.48,2.72 -7.48,6.16 0,3.68 3.44,5.16 6.48,6.28 2.4,0.92 4.96,1.92 4.96,4.12 0,1.88 -1.4,3.4 -4.28,3.4 -2.6,0 -4.56,-1.04 -6.44,-2.56 l -1.8,2.4 c 2.08,1.72 5.04,3 8.12,3 z"
         style="font-style:normal;font-variant:normal;font-weight:normal;font-stretch:normal;font-family:'Source Han Sans TW';-inkscape-font-specification:'Source Han Sans TW';stroke-width:1.56502438px"
         id="path8730" />
      <path
         inkscape:connector-curvature="0"
         d="m 782.11377,325.95384 c 5.12,0 7.92,-2.92 7.92,-6.44 0,-4.12 -3.48,-5.4 -6.64,-6.6 -2.44,-0.92 -4.8,-1.68 -4.8,-3.76 0,-1.68 1.24,-3.12 3.96,-3.12 1.96,0 3.48,0.8 5,1.92 l 1.76,-2.36 c -1.72,-1.32 -4.08,-2.44 -6.76,-2.44 -4.72,0 -7.48,2.72 -7.48,6.16 0,3.68 3.44,5.16 6.48,6.28 2.4,0.92 4.96,1.92 4.96,4.12 0,1.88 -1.4,3.4 -4.28,3.4 -2.6,0 -4.56,-1.04 -6.44,-2.56 l -1.8,2.4 c 2.08,1.72 5.04,3 8.12,3 z"
         style="font-style:normal;font-variant:normal;font-weight:normal;font-stretch:normal;font-family:'Source Han Sans TW';-inkscape-font-specification:'Source Han Sans TW';stroke-width:1.56502438px"
         id="path8732" />
      <path
         inkscape:connector-curvature="0"
         d="m 795.18377,325.43384 h 3.64 v -21.72 h -3.64 z m 1.84,-26.2 c 1.44,0 2.52,-1 2.52,-2.36 0,-1.48 -1.08,-2.36 -2.52,-2.36 -1.44,0 -2.52,0.88 -2.52,2.36 0,1.36 1.08,2.36 2.52,2.36 z"
         style="font-style:normal;font-variant:normal;font-weight:normal;font-stretch:normal;font-family:'Source Han Sans TW';-inkscape-font-specification:'Source Han Sans TW';stroke-width:1.56502438px"
         id="path8734" />
      <path
         inkscape:connector-curvature="0"
         d="m 814.63939,325.95384 c 5.32,0 10.08,-4.16 10.08,-11.36 0,-7.24 -4.76,-11.44 -10.08,-11.44 -5.32,0 -10.08,4.2 -10.08,11.44 0,7.2 4.76,11.36 10.08,11.36 z m 0,-3.04 c -3.76,0 -6.28,-3.32 -6.28,-8.32 0,-5 2.52,-8.4 6.28,-8.4 3.76,0 6.32,3.4 6.32,8.4 0,5 -2.56,8.32 -6.32,8.32 z"
         style="font-style:normal;font-variant:normal;font-weight:normal;font-stretch:normal;font-family:'Source Han Sans TW';-inkscape-font-specification:'Source Han Sans TW';stroke-width:1.56502438px"
         id="path8736" />
      <path
         inkscape:connector-curvature="0"
         d="m 830.41814,325.43384 h 3.64 v -15.76 c 2.2,-2.2 3.72,-3.32 5.96,-3.32 2.88,0 4.12,1.72 4.12,5.8 v 13.28 h 3.64 v -13.76 c 0,-5.56 -2.08,-8.52 -6.64,-8.52 -2.96,0 -5.2,1.64 -7.28,3.68 h -0.12 l -0.32,-3.12 h -3 z"
         style="font-style:normal;font-variant:normal;font-weight:normal;font-stretch:normal;font-family:'Source Han Sans TW';-inkscape-font-specification:'Source Han Sans TW';stroke-width:1.56502438px"
         id="path8738" />
      <path
         inkscape:connector-curvature="0"
         d="m 860.55127,325.95384 c 5.12,0 7.92,-2.92 7.92,-6.44 0,-4.12 -3.48,-5.4 -6.64,-6.6 -2.44,-0.92 -4.8,-1.68 -4.8,-3.76 0,-1.68 1.24,-3.12 3.96,-3.12 1.96,0 3.48,0.8 5,1.92 l 1.76,-2.36 c -1.72,-1.32 -4.08,-2.44 -6.76,-2.44 -4.72,0 -7.48,2.72 -7.48,6.16 0,3.68 3.44,5.16 6.48,6.28 2.4,0.92 4.96,1.92 4.96,4.12 0,1.88 -1.4,3.4 -4.28,3.4 -2.6,0 -4.56,-1.04 -6.44,-2.56 l -1.8,2.4 c 2.08,1.72 5.04,3 8.12,3 z"
         style="font-style:normal;font-variant:normal;font-weight:normal;font-stretch:normal;font-family:'Source Han Sans TW';-inkscape-font-specification:'Source Han Sans TW';stroke-width:1.56502438px"
         id="path8740" />
    </g>
  </g>
  <flowRoot
     transform="matrix(0.26458333,0,0,0.26458333,0,-90.487495)"
     style="font-style:normal;font-weight:normal;font-size:40px;line-height:36.32125854px;font-family:sans-serif;letter-spacing:0px;word-spacing:0px;fill:#000000;fill-opacity:1;stroke:none;stroke-width:1px;stroke-linecap:butt;stroke-linejoin:miter;stroke-opacity:1"
     id="flowRoot8676"
     xml:space="preserve"><flowRegion
       id="flowRegion8678"><rect
         y="-63.235245"
         x="-225.56706"
         height="985.70685"
         width="1634.1238"
         id="rect8680" /></flowRegion><flowPara
       id="flowPara8682" /></flowRoot></svg>
